%YAML 1.1
%TAG !u! tag:unity3d.com,2011:
--- !u!1001 &2762541077497723152
PrefabInstance:
  m_ObjectHideFlags: 0
  serializedVersion: 2
  m_Modification:
    m_TransformParent: {fileID: 0}
    m_Modifications:
    - target: {fileID: 1281920402793337259, guid: 4d41cc185d937ec4ead2d551d21ffdcc, type: 3}
      propertyPath: m_Mesh
      value: 
      objectReference: {fileID: -8858361891800328715, guid: 0da51bd757b2339499200c0c1d10b448, type: 3}
    - target: {fileID: 2766776173070229006, guid: 4d41cc185d937ec4ead2d551d21ffdcc, type: 3}
      propertyPath: m_RootOrder
      value: 0
      objectReference: {fileID: 0}
    - target: {fileID: 2766776173070229006, guid: 4d41cc185d937ec4ead2d551d21ffdcc, type: 3}
      propertyPath: m_LocalPosition.x
      value: 3.26
      objectReference: {fileID: 0}
    - target: {fileID: 2766776173070229006, guid: 4d41cc185d937ec4ead2d551d21ffdcc, type: 3}
      propertyPath: m_LocalPosition.y
      value: 2.177
      objectReference: {fileID: 0}
    - target: {fileID: 2766776173070229006, guid: 4d41cc185d937ec4ead2d551d21ffdcc, type: 3}
      propertyPath: m_LocalPosition.z
      value: -46.18
      objectReference: {fileID: 0}
    - target: {fileID: 2766776173070229006, guid: 4d41cc185d937ec4ead2d551d21ffdcc, type: 3}
      propertyPath: m_LocalRotation.w
      value: 0.7024687
      objectReference: {fileID: 0}
    - target: {fileID: 2766776173070229006, guid: 4d41cc185d937ec4ead2d551d21ffdcc, type: 3}
      propertyPath: m_LocalRotation.x
      value: -0.7024687
      objectReference: {fileID: 0}
    - target: {fileID: 2766776173070229006, guid: 4d41cc185d937ec4ead2d551d21ffdcc, type: 3}
      propertyPath: m_LocalRotation.y
      value: 0.08085629
      objectReference: {fileID: 0}
    - target: {fileID: 2766776173070229006, guid: 4d41cc185d937ec4ead2d551d21ffdcc, type: 3}
      propertyPath: m_LocalRotation.z
      value: 0.08085629
      objectReference: {fileID: 0}
    - target: {fileID: 2766776173070229006, guid: 4d41cc185d937ec4ead2d551d21ffdcc, type: 3}
      propertyPath: m_LocalEulerAnglesHint.x
      value: 0
      objectReference: {fileID: 0}
    - target: {fileID: 2766776173070229006, guid: 4d41cc185d937ec4ead2d551d21ffdcc, type: 3}
      propertyPath: m_LocalEulerAnglesHint.y
      value: 0
      objectReference: {fileID: 0}
    - target: {fileID: 2766776173070229006, guid: 4d41cc185d937ec4ead2d551d21ffdcc, type: 3}
      propertyPath: m_LocalEulerAnglesHint.z
      value: 0
      objectReference: {fileID: 0}
    - target: {fileID: 3255610952832107700, guid: 4d41cc185d937ec4ead2d551d21ffdcc, type: 3}
      propertyPath: m_Name
      value: SM_Superfuel_01 (1)
      objectReference: {fileID: 0}
    m_RemovedComponents: []
  m_SourcePrefab: {fileID: 100100000, guid: 4d41cc185d937ec4ead2d551d21ffdcc, type: 3}
