%YAML 1.1
%TAG !u! tag:unity3d.com,2011:
--- !u!21 &2100000
Material:
  serializedVersion: 6
  m_ObjectHideFlags: 0
  m_CorrespondingSourceObject: {fileID: 0}
  m_PrefabInstance: {fileID: 0}
  m_PrefabAsset: {fileID: 0}
  m_Name: Christine_Helmet_Superfuel
  m_Shader: {fileID: -6465566751694194690, guid: ad3c0aec7eefb854e96e51da7f1ced07, type: 3}
  m_ShaderKeywords: _DISABLE_SSR_TRANSPARENT _DOUBLESIDED_ON _ENABLE_FOG_ON_TRANSPARENT
    _SURFACE_TYPE_TRANSPARENT
  m_LightmapFlags: 4
  m_EnableInstancingVariants: 0
  m_DoubleSidedGI: 1
  m_CustomRenderQueue: 3001
  stringTagMap:
    MotionVector: User
    RenderType: Transparent
  disabledShaderPasses:
  - MOTIONVECTORS
  - TransparentDepthPrepass
  - TransparentDepthPostpass
  - RayTracingPrepass
  m_SavedProperties:
    serializedVersion: 3
    m_TexEnvs:
    - Texture2D_db80d6ea772646b0a59e55c9bb4e9821:
        m_Texture: {fileID: 2800000, guid: 5b732dc997d41ca478b4a5b60fe3c8aa, type: 3}
        m_Scale: {x: 1, y: 1}
        m_Offset: {x: 0, y: 0}
    - unity_Lightmaps:
        m_Texture: {fileID: 0}
        m_Scale: {x: 1, y: 1}
        m_Offset: {x: 0, y: 0}
    - unity_LightmapsInd:
        m_Texture: {fileID: 0}
        m_Scale: {x: 1, y: 1}
        m_Offset: {x: 0, y: 0}
    - unity_ShadowMasks:
        m_Texture: {fileID: 0}
        m_Scale: {x: 1, y: 1}
        m_Offset: {x: 0, y: 0}
    m_Floats:
    - Vector1_49e30f1af0cd4f4581191861c41e49b2: 10
    - Vector1_79511cc3b2b14a5ca68e251f66b3089c: 7.66
    - Vector1_8d7ee266932041308572cc77a2376757: 0.2
    - Vector1_b0e24f722e844d7ba755022deb25a65e: 10
    - Vector1_f757238b83fc4abca15e256ef50cce41: 0
    - _AddPrecomputedVelocity: 0
    - _AlphaCutoffEnable: 0
    - _AlphaDstBlend: 10
    - _AlphaSrcBlend: 1
    - _AlphaToMask: 0
    - _AlphaToMaskInspectorValue: 0
    - _BlendMode: 0
    - _CullMode: 0
    - _CullModeForward: 2
    - _DepthOffsetEnable: 0
    - _DoubleSidedEnable: 1
    - _DoubleSidedNormalMode: 2
    - _DstBlend: 10
    - _EnableBlendModePreserveSpecularLighting: 0
    - _EnableFogOnTransparent: 1
    - _OpaqueCullMode: 2
    - _RayTracing: 0
    - _ReceivesSSR: 1
    - _ReceivesSSRTransparent: 0
    - _RefractionModel: 0
    - _RenderQueueType: 4
    - _RequireSplitLighting: 0
    - _SrcBlend: 1
    - _StencilRef: 0
    - _StencilRefDepth: 0
    - _StencilRefDistortionVec: 4
    - _StencilRefGBuffer: 2
    - _StencilRefMV: 32
    - _StencilWriteMask: 6
    - _StencilWriteMaskDepth: 8
    - _StencilWriteMaskDistortionVec: 4
    - _StencilWriteMaskGBuffer: 14
    - _StencilWriteMaskMV: 40
    - _SupportDecals: 1
    - _SurfaceType: 1
    - _TransparentBackfaceEnable: 1
    - _TransparentCullMode: 2
    - _TransparentDepthPostpassEnable: 0
    - _TransparentDepthPrepassEnable: 0
    - _TransparentSortPriority: 1
    - _TransparentWritingMotionVec: 0
    - _TransparentZWrite: 1
    - _UseShadowThreshold: 0
    - _ZTestDepthEqualForOpaque: 4
    - _ZTestGBuffer: 4
    - _ZTestTransparent: 4
    - _ZWrite: 1
    m_Colors:
    - Color_2944d85874e445ab9c96c27550275b4a: {r: 1399930.2, g: 0, b: 0, a: 1}
    - Color_a6a3971e63c34ba3aede5273caa0ea64: {r: 85.445015, g: 2.0152123, b: 3.4837012, a: 0}
    - Color_ec31a4c855fa4656b2660fb4067c04e2: {r: 23.968628, g: 0.12549044, b: 0, a: 1}
    - Vector2_9862c17bfd5848e485381898bee53fd9: {r: 0, g: 10, b: 0, a: 0}
    - _DoubleSidedConstants: {r: 1, g: 1, b: 1, a: 0}
    - _EmissionColor: {r: 1, g: 1, b: 1, a: 1}
  m_BuildTextureStacks: []
--- !u!114 &5389933093014130090
MonoBehaviour:
  m_ObjectHideFlags: 11
  m_CorrespondingSourceObject: {fileID: 0}
  m_PrefabInstance: {fileID: 0}
  m_PrefabAsset: {fileID: 0}
  m_GameObject: {fileID: 0}
  m_Enabled: 1
  m_EditorHideFlags: 0
  m_Script: {fileID: 11500000, guid: da692e001514ec24dbc4cca1949ff7e8, type: 3}
  m_Name: 
  m_EditorClassIdentifier: 
  version: 11
