%YAML 1.1
%TAG !u! tag:unity3d.com,2011:
--- !u!114 &11400000
MonoBehaviour:
  m_ObjectHideFlags: 0
  m_CorrespondingSourceObject: {fileID: 0}
  m_PrefabInstance: {fileID: 0}
  m_PrefabAsset: {fileID: 0}
  m_GameObject: {fileID: 0}
  m_Enabled: 1
  m_EditorHideFlags: 0
  m_Script: {fileID: 11500000, guid: 7140b30fbb0024a4e96382cf0a66915b, type: 3}
  m_Name: Mutation_3_Jumping From Wall
  m_EditorClassIdentifier: 
  m_JumpAngle: {x: 0, y: 0}
  m_force: 0
