%YAML 1.1
%TAG !u! tag:unity3d.com,2011:
--- !u!114 &11400000
MonoBehaviour:
  m_ObjectHideFlags: 0
  m_CorrespondingSourceObject: {fileID: 0}
  m_PrefabInstance: {fileID: 0}
  m_PrefabAsset: {fileID: 0}
  m_GameObject: {fileID: 0}
  m_Enabled: 1
  m_EditorHideFlags: 0
  m_Script: {fileID: 11500000, guid: e47162c6450bb8848b4fad9f93c1bcae, type: 3}
  m_Name: Mutation_1_Walking_SuperFuel
  m_EditorClassIdentifier: 
  m_maxWalkSpeed: 1.5
  m_acceleration: 1.5
  m_turnOverAcc: 50
  m_groundDrag: 0.0025
  m_decceleration: 10
  m_groundedGravity: -0.05
