%YAML 1.1
%TAG !u! tag:unity3d.com,2011:
--- !u!114 &11400000
MonoBehaviour:
  m_ObjectHideFlags: 0
  m_CorrespondingSourceObject: {fileID: 0}
  m_PrefabInstance: {fileID: 0}
  m_PrefabAsset: {fileID: 0}
  m_GameObject: {fileID: 0}
  m_Enabled: 1
  m_EditorHideFlags: 0
  m_Script: {fileID: 11500000, guid: f084c49430c22514daf0ecbb19984c52, type: 3}
  m_Name: Mutation_1_BRAIN_SuperFuel
  m_EditorClassIdentifier: 
  m_christine_Materiel: {fileID: 2100000, guid: ab7f6a177c284294cad694d5d1c0a93e, type: 2}
  m_armature_Materiel: {fileID: 2100000, guid: 5dcf6f68d348d2a408a16761b8320bd2, type: 2}
  m_helmet_Materiel: {fileID: 2100000, guid: f55d08bbd6b0d6044823566aeab5e1c0, type: 2}
  m_currentMutationLevel: 1
  brain_CC_State_ClimbingWall: {fileID: 11400000, guid: 862f6bba4c588664ba718189c554e33b, type: 2}
  brain_CC_State_JumpingFromWall: {fileID: 11400000, guid: baeae25966334454f8570c16f15aeaf4, type: 2}
  brain_CC_State_Jumping: {fileID: 11400000, guid: 72856087895c7884697d21f256695848, type: 2}
  brain_CC_State_OnEdge: {fileID: 11400000, guid: 4f43268947dae4b45a5b5e55c36dabd6, type: 2}
  brain_CC_State_Pushing: {fileID: 11400000, guid: 7c33479e2012ecf4385c9d9394c70bb3, type: 2}
  brain_CC_State_Waiting: {fileID: 11400000, guid: 794d5ee0167d7c140b8d1b6d3b70bc2f, type: 2}
  brain_CC_State_Walking: {fileID: 11400000, guid: cfa103ed51aad6c409cf84c57ff5b872, type: 2}
