%YAML 1.1
%TAG !u! tag:unity3d.com,2011:
--- !u!1001 &8699251228533525620
PrefabInstance:
  m_ObjectHideFlags: 0
  serializedVersion: 2
  m_Modification:
    m_TransformParent: {fileID: 0}
    m_Modifications:
    - target: {fileID: 130024628875658094, guid: 651606148cda36e479fa0706991ab859,
        type: 3}
      propertyPath: m_Materials.Array.data[0]
      value: 
      objectReference: {fileID: 2100000, guid: 02fadd8642fcb7b49869d46526c7b43d, type: 2}
    - target: {fileID: 1675752893227109407, guid: 651606148cda36e479fa0706991ab859,
        type: 3}
      propertyPath: m_Materials.Array.data[0]
      value: 
      objectReference: {fileID: 2100000, guid: 02fadd8642fcb7b49869d46526c7b43d, type: 2}
    - target: {fileID: 2790862679238052336, guid: 651606148cda36e479fa0706991ab859,
        type: 3}
      propertyPath: m_Materials.Array.data[0]
      value: 
      objectReference: {fileID: 2100000, guid: 02fadd8642fcb7b49869d46526c7b43d, type: 2}
    - target: {fileID: 3143122955874711437, guid: 651606148cda36e479fa0706991ab859,
        type: 3}
      propertyPath: m_Materials.Array.data[0]
      value: 
      objectReference: {fileID: 2100000, guid: 02fadd8642fcb7b49869d46526c7b43d, type: 2}
    - target: {fileID: 3824585783652145511, guid: 651606148cda36e479fa0706991ab859,
        type: 3}
      propertyPath: m_Materials.Array.data[0]
      value: 
      objectReference: {fileID: 2100000, guid: 02fadd8642fcb7b49869d46526c7b43d, type: 2}
    - target: {fileID: 4049478847421185143, guid: 651606148cda36e479fa0706991ab859,
        type: 3}
      propertyPath: m_Materials.Array.data[0]
      value: 
      objectReference: {fileID: 2100000, guid: 02fadd8642fcb7b49869d46526c7b43d, type: 2}
    - target: {fileID: 4530742754492507971, guid: 651606148cda36e479fa0706991ab859,
        type: 3}
      propertyPath: m_Materials.Array.data[0]
      value: 
      objectReference: {fileID: 2100000, guid: 02fadd8642fcb7b49869d46526c7b43d, type: 2}
    - target: {fileID: 5360500834793696317, guid: 651606148cda36e479fa0706991ab859,
        type: 3}
      propertyPath: m_Materials.Array.data[0]
      value: 
      objectReference: {fileID: 2100000, guid: 02fadd8642fcb7b49869d46526c7b43d, type: 2}
    - target: {fileID: 5532852035146718875, guid: 651606148cda36e479fa0706991ab859,
        type: 3}
      propertyPath: m_Name
      value: Anemone00b
      objectReference: {fileID: 0}
    - target: {fileID: 5617731444798308361, guid: 651606148cda36e479fa0706991ab859,
        type: 3}
      propertyPath: m_Materials.Array.data[0]
      value: 
      objectReference: {fileID: 2100000, guid: 02fadd8642fcb7b49869d46526c7b43d, type: 2}
    - target: {fileID: 5784375692216975334, guid: 651606148cda36e479fa0706991ab859,
        type: 3}
      propertyPath: m_Materials.Array.data[0]
      value: 
      objectReference: {fileID: 2100000, guid: 02fadd8642fcb7b49869d46526c7b43d, type: 2}
    - target: {fileID: 7584958490937224493, guid: 651606148cda36e479fa0706991ab859,
        type: 3}
      propertyPath: m_Materials.Array.data[0]
      value: 
      objectReference: {fileID: 2100000, guid: 02fadd8642fcb7b49869d46526c7b43d, type: 2}
    - target: {fileID: 7592403928276859688, guid: 651606148cda36e479fa0706991ab859,
        type: 3}
      propertyPath: m_RootOrder
      value: 0
      objectReference: {fileID: 0}
    - target: {fileID: 7592403928276859688, guid: 651606148cda36e479fa0706991ab859,
        type: 3}
      propertyPath: m_LocalPosition.x
      value: 0
      objectReference: {fileID: 0}
    - target: {fileID: 7592403928276859688, guid: 651606148cda36e479fa0706991ab859,
        type: 3}
      propertyPath: m_LocalPosition.y
      value: 0
      objectReference: {fileID: 0}
    - target: {fileID: 7592403928276859688, guid: 651606148cda36e479fa0706991ab859,
        type: 3}
      propertyPath: m_LocalPosition.z
      value: 0
      objectReference: {fileID: 0}
    - target: {fileID: 7592403928276859688, guid: 651606148cda36e479fa0706991ab859,
        type: 3}
      propertyPath: m_LocalRotation.w
      value: 1
      objectReference: {fileID: 0}
    - target: {fileID: 7592403928276859688, guid: 651606148cda36e479fa0706991ab859,
        type: 3}
      propertyPath: m_LocalRotation.x
      value: 0.000000021855694
      objectReference: {fileID: 0}
    - target: {fileID: 7592403928276859688, guid: 651606148cda36e479fa0706991ab859,
        type: 3}
      propertyPath: m_LocalRotation.y
      value: -0
      objectReference: {fileID: 0}
    - target: {fileID: 7592403928276859688, guid: 651606148cda36e479fa0706991ab859,
        type: 3}
      propertyPath: m_LocalRotation.z
      value: -0
      objectReference: {fileID: 0}
    - target: {fileID: 7592403928276859688, guid: 651606148cda36e479fa0706991ab859,
        type: 3}
      propertyPath: m_LocalEulerAnglesHint.x
      value: 0
      objectReference: {fileID: 0}
    - target: {fileID: 7592403928276859688, guid: 651606148cda36e479fa0706991ab859,
        type: 3}
      propertyPath: m_LocalEulerAnglesHint.y
      value: 0
      objectReference: {fileID: 0}
    - target: {fileID: 7592403928276859688, guid: 651606148cda36e479fa0706991ab859,
        type: 3}
      propertyPath: m_LocalEulerAnglesHint.z
      value: 0
      objectReference: {fileID: 0}
    m_RemovedComponents: []
  m_SourcePrefab: {fileID: 100100000, guid: 651606148cda36e479fa0706991ab859, type: 3}
