%YAML 1.1
%TAG !u! tag:unity3d.com,2011:
--- !u!114 &11400000
MonoBehaviour:
  m_ObjectHideFlags: 0
  m_CorrespondingSourceObject: {fileID: 0}
  m_PrefabInstance: {fileID: 0}
  m_PrefabAsset: {fileID: 0}
  m_GameObject: {fileID: 0}
  m_Enabled: 1
  m_EditorHideFlags: 0
  m_Script: {fileID: 11500000, guid: 3f1ca63a91b17724bbd99c8fa67e0180, type: 3}
  m_Name: Default Material Palette
  m_EditorClassIdentifier: 
  array:
  - {fileID: 2100000, guid: 73c176f402d2c2f4d929aa5da7585d17, type: 2}
  - {fileID: 2100000, guid: 9ae86ebaac90ba64e82e2128e679dde9, type: 2}
  - {fileID: 2100000, guid: 7c2a2aa6b47b80744b57fc8e2dfa1949, type: 2}
  - {fileID: 2100000, guid: 2ffa81d1c11249f4eb870852c37f715d, type: 2}
  - {fileID: 2100000, guid: 23686b2703c01194691aadb138ed6f68, type: 2}
  - {fileID: 2100000, guid: 0bf6e052755ed6f43a8210f34152a128, type: 2}
  - {fileID: 2100000, guid: 6d98fa01241b6c348b6df734a9380d6f, type: 2}
  - {fileID: 0}
  - {fileID: 0}
  - {fileID: 0}
