%YAML 1.1
%TAG !u! tag:unity3d.com,2011:
--- !u!1001 &5928899902631062928
PrefabInstance:
  m_ObjectHideFlags: 0
  serializedVersion: 2
  m_Modification:
    m_TransformParent: {fileID: 0}
    m_Modifications:
    - target: {fileID: 3050464376407015818, guid: a2fc6802c11be1940a3fb8bb7f9a35eb, type: 3}
      propertyPath: m_Name
      value: SideScrollerEvent - KillPlayer
      objectReference: {fileID: 0}
    - target: {fileID: 3050464376407015818, guid: a2fc6802c11be1940a3fb8bb7f9a35eb, type: 3}
      propertyPath: m_IsActive
      value: 1
      objectReference: {fileID: 0}
    - target: {fileID: 3050464376407015821, guid: a2fc6802c11be1940a3fb8bb7f9a35eb, type: 3}
      propertyPath: m_RootOrder
      value: 0
      objectReference: {fileID: 0}
    - target: {fileID: 3050464376407015821, guid: a2fc6802c11be1940a3fb8bb7f9a35eb, type: 3}
      propertyPath: m_LocalPosition.x
      value: 0
      objectReference: {fileID: 0}
    - target: {fileID: 3050464376407015821, guid: a2fc6802c11be1940a3fb8bb7f9a35eb, type: 3}
      propertyPath: m_LocalPosition.y
      value: 0
      objectReference: {fileID: 0}
    - target: {fileID: 3050464376407015821, guid: a2fc6802c11be1940a3fb8bb7f9a35eb, type: 3}
      propertyPath: m_LocalPosition.z
      value: 0
      objectReference: {fileID: 0}
    - target: {fileID: 3050464376407015821, guid: a2fc6802c11be1940a3fb8bb7f9a35eb, type: 3}
      propertyPath: m_LocalRotation.w
      value: 1
      objectReference: {fileID: 0}
    - target: {fileID: 3050464376407015821, guid: a2fc6802c11be1940a3fb8bb7f9a35eb, type: 3}
      propertyPath: m_LocalRotation.x
      value: 0
      objectReference: {fileID: 0}
    - target: {fileID: 3050464376407015821, guid: a2fc6802c11be1940a3fb8bb7f9a35eb, type: 3}
      propertyPath: m_LocalRotation.y
      value: 0
      objectReference: {fileID: 0}
    - target: {fileID: 3050464376407015821, guid: a2fc6802c11be1940a3fb8bb7f9a35eb, type: 3}
      propertyPath: m_LocalRotation.z
      value: 0
      objectReference: {fileID: 0}
    - target: {fileID: 3050464376407015821, guid: a2fc6802c11be1940a3fb8bb7f9a35eb, type: 3}
      propertyPath: m_LocalEulerAnglesHint.x
      value: 0
      objectReference: {fileID: 0}
    - target: {fileID: 3050464376407015821, guid: a2fc6802c11be1940a3fb8bb7f9a35eb, type: 3}
      propertyPath: m_LocalEulerAnglesHint.y
      value: 0
      objectReference: {fileID: 0}
    - target: {fileID: 3050464376407015821, guid: a2fc6802c11be1940a3fb8bb7f9a35eb, type: 3}
      propertyPath: m_LocalEulerAnglesHint.z
      value: 0
      objectReference: {fileID: 0}
    - target: {fileID: 3050464376407015822, guid: a2fc6802c11be1940a3fb8bb7f9a35eb, type: 3}
      propertyPath: m_pathParams.path
      value: 
      objectReference: {fileID: 0}
    - target: {fileID: 3050464376407015822, guid: a2fc6802c11be1940a3fb8bb7f9a35eb, type: 3}
      propertyPath: m_pathParams.positionOnThePath
      value: 0
      objectReference: {fileID: 0}
    - target: {fileID: 3050464376407015822, guid: a2fc6802c11be1940a3fb8bb7f9a35eb, type: 3}
      propertyPath: m_EventsOnTriggerEnter.m_PersistentCalls.m_Calls.Array.size
      value: 1
      objectReference: {fileID: 0}
    - target: {fileID: 3050464376407015822, guid: a2fc6802c11be1940a3fb8bb7f9a35eb, type: 3}
      propertyPath: m_EventsOnTriggerEnter.m_PersistentCalls.m_Calls.Array.data[0].m_Mode
      value: 1
      objectReference: {fileID: 0}
    - target: {fileID: 3050464376407015822, guid: a2fc6802c11be1940a3fb8bb7f9a35eb, type: 3}
      propertyPath: m_EventsOnTriggerEnter.m_PersistentCalls.m_Calls.Array.data[0].m_Target
      value: 
      objectReference: {fileID: 140735813}
    - target: {fileID: 3050464376407015822, guid: a2fc6802c11be1940a3fb8bb7f9a35eb, type: 3}
      propertyPath: m_EventsOnTriggerEnter.m_PersistentCalls.m_Calls.Array.data[0].m_CallState
      value: 2
      objectReference: {fileID: 0}
    - target: {fileID: 3050464376407015822, guid: a2fc6802c11be1940a3fb8bb7f9a35eb, type: 3}
      propertyPath: m_EventsOnTriggerEnter.m_PersistentCalls.m_Calls.Array.data[0].m_MethodName
      value: Kill
      objectReference: {fileID: 0}
    - target: {fileID: 3050464376407015822, guid: a2fc6802c11be1940a3fb8bb7f9a35eb, type: 3}
      propertyPath: m_EventsOnTriggerEnter.m_PersistentCalls.m_Calls.Array.data[0].m_TargetAssemblyTypeName
      value: SSEv_KillCharacter, Assembly-CSharp
      objectReference: {fileID: 0}
    - target: {fileID: 3050464376407015822, guid: a2fc6802c11be1940a3fb8bb7f9a35eb, type: 3}
      propertyPath: m_EventsOnTriggerEnter.m_PersistentCalls.m_Calls.Array.data[0].m_Arguments.m_ObjectArgumentAssemblyTypeName
      value: UnityEngine.Object, UnityEngine
      objectReference: {fileID: 0}
    m_RemovedComponents: []
  m_SourcePrefab: {fileID: 100100000, guid: a2fc6802c11be1940a3fb8bb7f9a35eb, type: 3}
--- !u!1 &8652191398404385818 stripped
GameObject:
  m_CorrespondingSourceObject: {fileID: 3050464376407015818, guid: a2fc6802c11be1940a3fb8bb7f9a35eb, type: 3}
  m_PrefabInstance: {fileID: 5928899902631062928}
  m_PrefabAsset: {fileID: 0}
--- !u!114 &140735813
MonoBehaviour:
  m_ObjectHideFlags: 0
  m_CorrespondingSourceObject: {fileID: 0}
  m_PrefabInstance: {fileID: 0}
  m_PrefabAsset: {fileID: 0}
  m_GameObject: {fileID: 8652191398404385818}
  m_Enabled: 1
  m_EditorHideFlags: 0
  m_Script: {fileID: 11500000, guid: 908146f981870b04bb78acfb8777bb9e, type: 3}
  m_Name: 
  m_EditorClassIdentifier: 
