%YAML 1.1
%TAG !u! tag:unity3d.com,2011:
--- !u!114 &11400000
MonoBehaviour:
  m_ObjectHideFlags: 0
  m_CorrespondingSourceObject: {fileID: 0}
  m_PrefabInstance: {fileID: 0}
  m_PrefabAsset: {fileID: 0}
  m_GameObject: {fileID: 0}
  m_Enabled: 1
  m_EditorHideFlags: 0
  m_Script: {fileID: 11500000, guid: 5415a5032c6a32e4ca53206bb5d95f22, type: 3}
  m_Name: '20210315-151527 Spawning - '
  m_EditorClassIdentifier: 
  m_spawnArea:
    m_Center:
      x: 0
      y: 47.23724365234375
      z: 0
    m_Extents:
      x: 512
      y: 512
      z: 512
  m_biomeControllerSettings: {fileID: 0}
  m_isWorldMapSpawner: 0
  m_spawnerSettingsList:
  - {fileID: 4091764194147052152}
--- !u!114 &4091764194147052152
MonoBehaviour:
  m_ObjectHideFlags: 0
  m_CorrespondingSourceObject: {fileID: 0}
  m_PrefabInstance: {fileID: 0}
  m_PrefabAsset: {fileID: 0}
  m_GameObject: {fileID: 0}
  m_Enabled: 1
  m_EditorHideFlags: 0
  m_Script: {fileID: 11500000, guid: f1d61257710f55f478816040e1d1dfc9, type: 3}
  m_Name: 
  m_EditorClassIdentifier: 
  m_resources:
    m_resourcesID: b4f2c431-3bd5-4935-98cf-0450615f49df
    m_name: NewResources
    m_beachHeight: 5
    m_terrainHeight: 1000
    m_texturePrototypes: []
    m_detailPrototypes: []
    m_treePrototypes: []
    m_gameObjectPrototypes:
    - m_name: RockBlock04
      m_instances:
      - m_name: RockBlock04
        m_desktopPrefab: {fileID: 1051434818310592, guid: 6fda5c66effbfd445b4258f3ccd8e3bd,
          type: 3}
        m_desktopPrefabFileName: 
        m_minInstances: 1
        m_maxInstances: 2
        m_failureRate: 0
        m_minSpawnOffsetX: -2
        m_maxSpawnOffsetX: 2
        m_minSpawnOffsetY: -1
        m_maxSpawnOffsetY: 0
        m_minSpawnOffsetZ: -2
        m_maxSpawnOffsetZ: 2
        m_rotateToSlope: 0
        m_yOffsetToSlope: 0
        m_minRotationOffsetX: -0
        m_maxRotationOffsetX: 139.22157
        m_minRotationOffsetY: 0
        m_maxRotationOffsetY: 199.85034
        m_minRotationOffsetZ: 0
        m_maxRotationOffsetZ: 110.02995
        m_minScale: 1
        m_maxScale: 4
        m_scaleByDistance:
          serializedVersion: 2
          m_Curve:
          - serializedVersion: 3
            time: 0
            value: 1
            inSlope: 0
            outSlope: 0
            tangentMode: 0
            weightedMode: 0
            inWeight: 0
            outWeight: 0
          - serializedVersion: 3
            time: 1
            value: 1
            inSlope: 0
            outSlope: 0
            tangentMode: 0
            weightedMode: 0
            inWeight: 0
            outWeight: 0
          m_PreInfinity: 2
          m_PostInfinity: 2
          m_RotationOrder: 4
        m_localBounds: 7.9580183
        m_virginTerrain: 0
        m_extParam: 
        m_spawnScale: 2
        m_commonScale: 1
        m_minXYZScale: {x: 1, y: 1, z: 1}
        m_maxXYZScale: {x: 1, y: 1, z: 1}
        m_scaleRandomPercentage: 0.5
        m_XYZScaleRandomPercentage: {x: 0.5, y: 0.5, z: 0.5}
        m_foldedOut: 1
      m_dna:
        m_boundsRadius: 7.9580183
        m_scaleMultiplier: 1
        m_extParam: 
        m_protoIdx: 0
      m_spawnCriteria:
      - m_name: 
        m_checkType: 1
        m_virginTerrain: 1
        m_checkHeight: 1
        m_minHeight: 0
        m_maxHeight: 975
        m_heightFitness:
          serializedVersion: 2
          m_Curve:
          - serializedVersion: 3
            time: 0
            value: 1
            inSlope: 0
            outSlope: 0
            tangentMode: 0
            weightedMode: 0
            inWeight: 0
            outWeight: 0
          - serializedVersion: 3
            time: 1
            value: 0
            inSlope: 0
            outSlope: 0
            tangentMode: 0
            weightedMode: 0
            inWeight: 0
            outWeight: 0
          m_PreInfinity: 2
          m_PostInfinity: 2
          m_RotationOrder: 4
        m_checkSlope: 1
        m_minSlope: 0
        m_maxSlope: 9.234155
        m_slopeFitness:
          serializedVersion: 2
          m_Curve:
          - serializedVersion: 3
            time: 0
            value: 1
            inSlope: 0
            outSlope: 0
            tangentMode: 0
            weightedMode: 0
            inWeight: 0
            outWeight: 0
          - serializedVersion: 3
            time: 1
            value: 0
            inSlope: 0
            outSlope: 0
            tangentMode: 0
            weightedMode: 0
            inWeight: 0
            outWeight: 0
          m_PreInfinity: 2
          m_PostInfinity: 2
          m_RotationOrder: 4
        m_checkProximity: 0
        m_proximityTag: 
        m_minProximity: 0
        m_maxProximity: 100
        m_proximityFitness:
          serializedVersion: 2
          m_Curve:
          - serializedVersion: 3
            time: 0
            value: 1
            inSlope: 0
            outSlope: 0
            tangentMode: 0
            weightedMode: 0
            inWeight: 0
            outWeight: 0
          - serializedVersion: 3
            time: 0.3
            value: 0.2
            inSlope: 0
            outSlope: 0
            tangentMode: 0
            weightedMode: 0
            inWeight: 0
            outWeight: 0
          - serializedVersion: 3
            time: 1
            value: 0
            inSlope: 0
            outSlope: 0
            tangentMode: 0
            weightedMode: 0
            inWeight: 0
            outWeight: 0
          m_PreInfinity: 2
          m_PostInfinity: 2
          m_RotationOrder: 4
        m_checkTexture: 0
        m_matchingTextures: '!3'
        m_isActive: 1
      m_spawnExtensions: []
      m_canSpawnAsTree: 0
      m_instancesFoldOut: 1
      m_dnaFoldedOut: 0
    m_spawnExtensionPrototypes: []
    m_stampDistributionPrototypes: []
    m_worldBiomeMaskPrototypes: []
    m_probePrototypes: []
  m_x: 0
  m_y: 50
  m_z: 0
  m_width: 10
  m_height: 10
  m_rotation: 0
  m_isWorldmapSpawner: 0
  m_spawnRange: 512
  m_generateRandomSeed: 1
  m_randomSeed: 1679802465
  m_spawnDensity: 0.8
  m_resourcesPath: 
  m_spawnerRules:
  - m_name: RockBlock04
    m_guid: 7dec9834-9c98-4a5d-9e64-6591d7a7419c
    m_useExtendedSpawn: 0
    m_minRequiredFitness: 0.15
    m_minInstanceRequiredFitness: 0
    m_failureRate: 0
    m_maxInstances: 40000000
    m_ignoreMaxInstances: 0
    m_minDirection: 0
    m_maxDirection: 359.9
    m_locationIncrementMin: 25
    m_locationIncrementMax: 45
    m_jitterPercent: 1
    m_boundsCheckQuality: 25
    m_resourceType: 3
    m_resourceIdx: 0
    m_imageMasks:
    - m_active: 1
      m_invert: 0
      m_hasErrors: 0
      m_influence: 0
      m_operation: 3
      m_blendMode: 0
      m_imageMaskLocation: 1
      m_strength: 1
      m_seaLevel: 8
      m_maxWorldHeight: 94.032684
      m_minWorldHeight: 0
      m_xOffSet: 0
      m_zOffSet: 0
      m_xOffSetScalar: 0
      m_zOffSetScalar: 0
      m_imageMaskTextureGUID: 
      m_imageMaskFilterMode: 0
      m_imageMaskColorSelectionColor: {r: 1, g: 1, b: 1, a: 1}
      m_imageMaskColorSelectionAccuracy: 0.5
      m_distanceMaskCurve:
        serializedVersion: 2
        m_Curve:
        - serializedVersion: 3
          time: 0
          value: 1
          inSlope: 0
          outSlope: 0
          tangentMode: 0
          weightedMode: 0
          inWeight: 0
          outWeight: 0
        - serializedVersion: 3
          time: 1
          value: 0
          inSlope: 0
          outSlope: 0
          tangentMode: 0
          weightedMode: 0
          inWeight: 0
          outWeight: 0
        m_PreInfinity: 2
        m_PostInfinity: 2
        m_RotationOrder: 4
      m_heightMaskCurve:
        serializedVersion: 2
        m_Curve:
        - serializedVersion: 3
          time: 0
          value: 0
          inSlope: 0
          outSlope: 0
          tangentMode: 0
          weightedMode: 0
          inWeight: 0
          outWeight: 0
        - serializedVersion: 3
          time: 1
          value: 1
          inSlope: 0
          outSlope: 0
          tangentMode: 0
          weightedMode: 0
          inWeight: 0
          outWeight: 0
        m_PreInfinity: 2
        m_PostInfinity: 2
        m_RotationOrder: 4
      m_strengthTransformCurve:
        serializedVersion: 2
        m_Curve:
        - serializedVersion: 3
          time: 0
          value: 0.0023498535
          inSlope: 16.345053
          outSlope: 16.345053
          tangentMode: 0
          weightedMode: 0
          inWeight: 0
          outWeight: 0.11351816
        - serializedVersion: 3
          time: 0.031453058
          value: 0.92232764
          inSlope: 0.32189283
          outSlope: 0.32189283
          tangentMode: 0
          weightedMode: 0
          inWeight: 0.33333334
          outWeight: 0.056870535
        - serializedVersion: 3
          time: 1
          value: 1
          inSlope: 0
          outSlope: 0
          tangentMode: 0
          weightedMode: 0
          inWeight: 0
          outWeight: 0
        m_PreInfinity: 2
        m_PostInfinity: 2
        m_RotationOrder: 4
      m_heightMaskType: 1
      m_heightMaskUnit: 1
      m_relativeHeightMin: 25
      m_relativeHeightMax: 75
      m_absoluteHeightMin: 50
      m_absoluteHeightMax: 150
      m_seaLevelRelativeHeightMin: -109876.55
      m_seaLevelRelativeHeightMax: 109876.55
      tree1active: 0
      tree2active: 0
      m_slopeMaskCurve:
        serializedVersion: 2
        m_Curve:
        - serializedVersion: 3
          time: 0
          value: 0
          inSlope: 1
          outSlope: 1
          tangentMode: 34
          weightedMode: 0
          inWeight: 0
          outWeight: 0
        - serializedVersion: 3
          time: 1
          value: 1
          inSlope: 1
          outSlope: 1
          tangentMode: 34
          weightedMode: 0
          inWeight: 0
          outWeight: 0
        m_PreInfinity: 2
        m_PostInfinity: 2
        m_RotationOrder: 4
      m_slopeMin: 0
      m_slopeMax: 0.30255556
      m_distanceMaskAxes: 0
      m_gaiaNoiseSettings:
        m_translation: {x: 0, y: 0, z: 0}
        m_rotation: {x: 0, y: 0, z: 0}
        m_scale: {x: 10, y: 1, z: 10}
        m_noiseTypeName: Perlin
        m_noiseTypeParams: 
        m_fractalTypeName: Fbm
        m_fractalTypeParams: 
        m_warpEnabled: 0
        m_warpIterations: 0
        m_warpStrength: 0
        m_warpOffset: {x: 0, y: 0, z: 0, w: 0}
      m_noiseSettings: {fileID: 0}
      m_noiseToolSettings:
        worldHeightRemap: {x: 0, y: 0}
        coordSpace: 0
        noiseAssetGUID: 
      m_ShowNoiseTransformSettings: 0
      m_ShowNoisePreviewTexture: 1
      m_noisePreviewTextureLocked: 0
      m_ShowNoiseTypeSettings: 0
      m_scaleNoiseToTerrainSize: 0
      m_collisionMaskExpanded: 1
      m_collisionMasks: []
      m_erosionMaskOutput: 0
      m_erosionSimScale: 9
      m_erosionHydroTimeDelta: 0.05
      m_erosionHydroIterations: 15
      m_erosionThermalTimeDelta: 0.01
      m_erosionThermalIterations: 80
      m_erosionThermalReposeAngle: 80
      m_erosionPrecipRate: 0.5
      m_erosionEvaporationRate: 0.5
      m_erosionFlowRate: 0.5
      m_erosionSedimentCapacity: 0.5
      m_erosionSedimentDepositRate: 0.8
      m_erosionSedimentDissolveRate: 0.5
      m_erosionRiverBankDepositRate: 7
      m_erosionRiverBankDissolveRate: 5
      m_erosionRiverBedDepositRate: 5
      m_erosionRiverBedDissolveRate: 5
      m_erosionShowAdvancedUI: 0
      m_erosionShowThermalUI: 0
      m_erosionShowWaterUI: 0
      m_erosionShowSedimentUI: 0
      m_erosionShowRiverBankUI: 0
      m_smoothVerticality: 0
      m_smoothBlurRadius: 1
      m_textureMaskSpawnRuleGUID: 
      m_concavity: 1
      m_concavityFeatureSize: 10
      m_foldedOut: 1
      m_selectedWorldBiomeMaskGUID: 
      m_growAndShrinkValue: 0
      m_globalSpawnerMaskStackRT: {fileID: 0}
    m_visualisationColor: {r: 0.06357378, g: 1, b: 0.0927131, a: 1}
    m_noiseMask: 0
    m_noiseMaskSeed: 0
    m_noiseMaskOctaves: 8
    m_noiseMaskPersistence: 0.25
    m_noiseMaskFrequency: 1
    m_noiseMaskLacunarity: 1.5
    m_noiseZoom: 50
    m_noiseStrength: 1
    m_noiseInvert: 0
    m_isActive: 1
    m_isFoldedOut: 1
    m_currInstanceCnt: 0
    m_activeInstanceCnt: 0
    m_inactiveInstanceCnt: 0
    m_resourceSettingsFoldedOut: 1
    m_isHelpActive: 0
    m_spawnedInstances: 0
    m_goSpawnTargetMode: 0
    m_goSpawnTarget: {fileID: 0}
    m_terrainGOSpawnTargetName: Gaia Game Object Spawns
    m_terrainDetailDensity: 15
    m_terrainDetailMinFitness: 0.5
    m_terrainDetailFitnessBeginFadeOut: 0.6
    m_createdBiomeController: {fileID: 0}
    m_visibleInSceneHierarchy: 1
    m_usesBoxStandIn: 0
    m_boundsCollisionCheck: 0
  m_showGizmos: 1
  m_showDebug: 0
  m_showTerrainHelper: 1
  m_spawnMode: 0
  imageMasks:
  - m_active: 1
    m_invert: 0
    m_hasErrors: 0
    m_influence: 0
    m_operation: 9
    m_blendMode: 0
    m_imageMaskLocation: 0
    m_strength: 1
    m_seaLevel: 8
    m_maxWorldHeight: 94.032684
    m_minWorldHeight: 0
    m_xOffSet: 0
    m_zOffSet: 0
    m_xOffSetScalar: 0
    m_zOffSetScalar: 0
    m_imageMaskTextureGUID: 
    m_imageMaskFilterMode: 0
    m_imageMaskColorSelectionColor: {r: 1, g: 1, b: 1, a: 1}
    m_imageMaskColorSelectionAccuracy: 0.5
    m_distanceMaskCurve:
      serializedVersion: 2
      m_Curve:
      - serializedVersion: 3
        time: 0
        value: 1
        inSlope: 0
        outSlope: 0
        tangentMode: 0
        weightedMode: 0
        inWeight: 0
        outWeight: 0
      - serializedVersion: 3
        time: 1
        value: 0
        inSlope: 0
        outSlope: 0
        tangentMode: 0
        weightedMode: 0
        inWeight: 0
        outWeight: 0
      m_PreInfinity: 2
      m_PostInfinity: 2
      m_RotationOrder: 4
    m_heightMaskCurve:
      serializedVersion: 2
      m_Curve:
      - serializedVersion: 3
        time: 0
        value: 0
        inSlope: 0
        outSlope: 0
        tangentMode: 0
        weightedMode: 0
        inWeight: 0
        outWeight: 0
      - serializedVersion: 3
        time: 1
        value: 1
        inSlope: 0
        outSlope: 0
        tangentMode: 0
        weightedMode: 0
        inWeight: 0
        outWeight: 0
      m_PreInfinity: 2
      m_PostInfinity: 2
      m_RotationOrder: 4
    m_strengthTransformCurve:
      serializedVersion: 2
      m_Curve:
      - serializedVersion: 3
        time: 0
        value: 0
        inSlope: 1
        outSlope: 1
        tangentMode: 0
        weightedMode: 0
        inWeight: 0
        outWeight: 0
      - serializedVersion: 3
        time: 1
        value: 1
        inSlope: 1
        outSlope: 1
        tangentMode: 0
        weightedMode: 0
        inWeight: 0
        outWeight: 0
      m_PreInfinity: 2
      m_PostInfinity: 2
      m_RotationOrder: 4
    m_heightMaskType: 1
    m_heightMaskUnit: 1
    m_relativeHeightMin: 25
    m_relativeHeightMax: 75
    m_absoluteHeightMin: 50
    m_absoluteHeightMax: 150
    m_seaLevelRelativeHeightMin: -109876.55
    m_seaLevelRelativeHeightMax: 109876.55
    tree1active: 0
    tree2active: 0
    m_slopeMaskCurve:
      serializedVersion: 2
      m_Curve:
      - serializedVersion: 3
        time: 0
        value: 0
        inSlope: 1
        outSlope: 1
        tangentMode: 0
        weightedMode: 0
        inWeight: 0
        outWeight: 0
      - serializedVersion: 3
        time: 1
        value: 1
        inSlope: 1
        outSlope: 1
        tangentMode: 0
        weightedMode: 0
        inWeight: 0
        outWeight: 0
      m_PreInfinity: 2
      m_PostInfinity: 2
      m_RotationOrder: 4
    m_slopeMin: 0
    m_slopeMax: 0.1
    m_distanceMaskAxes: 0
    m_gaiaNoiseSettings:
      m_translation: {x: 0, y: 0, z: 0}
      m_rotation: {x: 0, y: 0, z: 0}
      m_scale: {x: 10, y: 1, z: 10}
      m_noiseTypeName: Perlin
      m_noiseTypeParams: 
      m_fractalTypeName: Fbm
      m_fractalTypeParams: 
      m_warpEnabled: 0
      m_warpIterations: 0
      m_warpStrength: 0
      m_warpOffset: {x: 0, y: 0, z: 0, w: 0}
    m_noiseSettings: {fileID: 0}
    m_noiseToolSettings:
      worldHeightRemap: {x: 0, y: 0}
      coordSpace: 0
      noiseAssetGUID: 
    m_ShowNoiseTransformSettings: 0
    m_ShowNoisePreviewTexture: 1
    m_noisePreviewTextureLocked: 0
    m_ShowNoiseTypeSettings: 0
    m_scaleNoiseToTerrainSize: 0
    m_collisionMaskExpanded: 1
    m_collisionMasks: []
    m_erosionMaskOutput: 0
    m_erosionSimScale: 9
    m_erosionHydroTimeDelta: 0.05
    m_erosionHydroIterations: 15
    m_erosionThermalTimeDelta: 0.01
    m_erosionThermalIterations: 80
    m_erosionThermalReposeAngle: 80
    m_erosionPrecipRate: 0.5
    m_erosionEvaporationRate: 0.5
    m_erosionFlowRate: 0.5
    m_erosionSedimentCapacity: 0.5
    m_erosionSedimentDepositRate: 0.8
    m_erosionSedimentDissolveRate: 0.5
    m_erosionRiverBankDepositRate: 7
    m_erosionRiverBankDissolveRate: 5
    m_erosionRiverBedDepositRate: 5
    m_erosionRiverBedDissolveRate: 5
    m_erosionShowAdvancedUI: 0
    m_erosionShowThermalUI: 0
    m_erosionShowWaterUI: 0
    m_erosionShowSedimentUI: 0
    m_erosionShowRiverBankUI: 0
    m_smoothVerticality: 0
    m_smoothBlurRadius: 1
    m_textureMaskSpawnRuleGUID: e3a93bcd-c9f0-4fed-a29e-7843490d769c
    m_concavity: 1
    m_concavityFeatureSize: 10
    m_foldedOut: 0
    m_selectedWorldBiomeMaskGUID: 
    m_growAndShrinkValue: 0
    m_globalSpawnerMaskStackRT: {fileID: 0}
  - m_active: 1
    m_invert: 0
    m_hasErrors: 0
    m_influence: 0
    m_operation: 2
    m_blendMode: 0
    m_imageMaskLocation: 0
    m_strength: 1
    m_seaLevel: 8
    m_maxWorldHeight: 94.032684
    m_minWorldHeight: 0
    m_xOffSet: 0
    m_zOffSet: 0
    m_xOffSetScalar: 0
    m_zOffSetScalar: 0
    m_imageMaskTextureGUID: 
    m_imageMaskFilterMode: 0
    m_imageMaskColorSelectionColor: {r: 1, g: 1, b: 1, a: 1}
    m_imageMaskColorSelectionAccuracy: 0.5
    m_distanceMaskCurve:
      serializedVersion: 2
      m_Curve:
      - serializedVersion: 3
        time: 0
        value: 1
        inSlope: 0
        outSlope: 0
        tangentMode: 0
        weightedMode: 0
        inWeight: 0
        outWeight: 0
      - serializedVersion: 3
        time: 1
        value: 0
        inSlope: 0
        outSlope: 0
        tangentMode: 0
        weightedMode: 0
        inWeight: 0
        outWeight: 0
      m_PreInfinity: 2
      m_PostInfinity: 2
      m_RotationOrder: 4
    m_heightMaskCurve:
      serializedVersion: 2
      m_Curve:
      - serializedVersion: 3
        time: 0
        value: 0
        inSlope: 0
        outSlope: 0
        tangentMode: 0
        weightedMode: 0
        inWeight: 0
        outWeight: 0
      - serializedVersion: 3
        time: 1
        value: 1
        inSlope: 0
        outSlope: 0
        tangentMode: 0
        weightedMode: 0
        inWeight: 0
        outWeight: 0
      m_PreInfinity: 2
      m_PostInfinity: 2
      m_RotationOrder: 4
    m_strengthTransformCurve:
      serializedVersion: 2
      m_Curve:
      - serializedVersion: 3
        time: 0
        value: 0
        inSlope: 2
        outSlope: 2
        tangentMode: 0
        weightedMode: 0
        inWeight: 0
        outWeight: 0
      - serializedVersion: 3
        time: 0.03360521
        value: 0.9509522
        inSlope: 0.17182249
        outSlope: 0.17182249
        tangentMode: 0
        weightedMode: 0
        inWeight: 0.33333334
        outWeight: 0.053921107
      - serializedVersion: 3
        time: 1
        value: 1
        inSlope: 0
        outSlope: 0
        tangentMode: 0
        weightedMode: 0
        inWeight: 0
        outWeight: 0
      m_PreInfinity: 2
      m_PostInfinity: 2
      m_RotationOrder: 4
    m_heightMaskType: 1
    m_heightMaskUnit: 1
    m_relativeHeightMin: 0
    m_relativeHeightMax: 50
    m_absoluteHeightMin: 8.50768
    m_absoluteHeightMax: 58.50768
    m_seaLevelRelativeHeightMin: -109876.55
    m_seaLevelRelativeHeightMax: 109876.55
    tree1active: 0
    tree2active: 0
    m_slopeMaskCurve:
      serializedVersion: 2
      m_Curve:
      - serializedVersion: 3
        time: 0
        value: 0
        inSlope: 1
        outSlope: 1
        tangentMode: 0
        weightedMode: 0
        inWeight: 0
        outWeight: 0
      - serializedVersion: 3
        time: 1
        value: 1
        inSlope: 1
        outSlope: 1
        tangentMode: 0
        weightedMode: 0
        inWeight: 0
        outWeight: 0
      m_PreInfinity: 2
      m_PostInfinity: 2
      m_RotationOrder: 4
    m_slopeMin: 0
    m_slopeMax: 0.1
    m_distanceMaskAxes: 0
    m_gaiaNoiseSettings:
      m_translation: {x: 0, y: 0, z: 0}
      m_rotation: {x: 0, y: 0, z: 0}
      m_scale: {x: 10, y: 1, z: 10}
      m_noiseTypeName: Perlin
      m_noiseTypeParams: 
      m_fractalTypeName: Fbm
      m_fractalTypeParams: 
      m_warpEnabled: 0
      m_warpIterations: 0
      m_warpStrength: 0
      m_warpOffset: {x: 0, y: 0, z: 0, w: 0}
    m_noiseSettings: {fileID: 0}
    m_noiseToolSettings:
      worldHeightRemap: {x: 0, y: 0}
      coordSpace: 0
      noiseAssetGUID: 
    m_ShowNoiseTransformSettings: 0
    m_ShowNoisePreviewTexture: 1
    m_noisePreviewTextureLocked: 0
    m_ShowNoiseTypeSettings: 0
    m_scaleNoiseToTerrainSize: 0
    m_collisionMaskExpanded: 1
    m_collisionMasks: []
    m_erosionMaskOutput: 0
    m_erosionSimScale: 9
    m_erosionHydroTimeDelta: 0.05
    m_erosionHydroIterations: 15
    m_erosionThermalTimeDelta: 0.01
    m_erosionThermalIterations: 80
    m_erosionThermalReposeAngle: 80
    m_erosionPrecipRate: 0.5
    m_erosionEvaporationRate: 0.5
    m_erosionFlowRate: 0.5
    m_erosionSedimentCapacity: 0.5
    m_erosionSedimentDepositRate: 0.8
    m_erosionSedimentDissolveRate: 0.5
    m_erosionRiverBankDepositRate: 7
    m_erosionRiverBankDissolveRate: 5
    m_erosionRiverBedDepositRate: 5
    m_erosionRiverBedDissolveRate: 5
    m_erosionShowAdvancedUI: 0
    m_erosionShowThermalUI: 0
    m_erosionShowWaterUI: 0
    m_erosionShowSedimentUI: 0
    m_erosionShowRiverBankUI: 0
    m_smoothVerticality: 0
    m_smoothBlurRadius: 1
    m_textureMaskSpawnRuleGUID: 
    m_concavity: 1
    m_concavityFeatureSize: 10
    m_foldedOut: 1
    m_selectedWorldBiomeMaskGUID: 
    m_growAndShrinkValue: 0
    m_globalSpawnerMaskStackRT: {fileID: 0}
  - m_active: 1
    m_invert: 0
    m_hasErrors: 0
    m_influence: 0
    m_operation: 5
    m_blendMode: 0
    m_imageMaskLocation: 0
    m_strength: 1
    m_seaLevel: 8
    m_maxWorldHeight: 94.032684
    m_minWorldHeight: 0
    m_xOffSet: 0
    m_zOffSet: 0
    m_xOffSetScalar: 0
    m_zOffSetScalar: 0
    m_imageMaskTextureGUID: 
    m_imageMaskFilterMode: 0
    m_imageMaskColorSelectionColor: {r: 1, g: 1, b: 1, a: 1}
    m_imageMaskColorSelectionAccuracy: 0.5
    m_distanceMaskCurve:
      serializedVersion: 2
      m_Curve:
      - serializedVersion: 3
        time: 0
        value: 1
        inSlope: 0
        outSlope: 0
        tangentMode: 0
        weightedMode: 0
        inWeight: 0
        outWeight: 0
      - serializedVersion: 3
        time: 1
        value: 0
        inSlope: 0
        outSlope: 0
        tangentMode: 0
        weightedMode: 0
        inWeight: 0
        outWeight: 0
      m_PreInfinity: 2
      m_PostInfinity: 2
      m_RotationOrder: 4
    m_heightMaskCurve:
      serializedVersion: 2
      m_Curve:
      - serializedVersion: 3
        time: 0
        value: 0
        inSlope: 0
        outSlope: 0
        tangentMode: 0
        weightedMode: 0
        inWeight: 0
        outWeight: 0
      - serializedVersion: 3
        time: 1
        value: 1
        inSlope: 0
        outSlope: 0
        tangentMode: 0
        weightedMode: 0
        inWeight: 0
        outWeight: 0
      m_PreInfinity: 2
      m_PostInfinity: 2
      m_RotationOrder: 4
    m_strengthTransformCurve:
      serializedVersion: 2
      m_Curve:
      - serializedVersion: 3
        time: 0
        value: 0
        inSlope: 1
        outSlope: 1
        tangentMode: 0
        weightedMode: 0
        inWeight: 0
        outWeight: 0
      - serializedVersion: 3
        time: 1
        value: 1
        inSlope: 1
        outSlope: 1
        tangentMode: 0
        weightedMode: 0
        inWeight: 0
        outWeight: 0
      m_PreInfinity: 2
      m_PostInfinity: 2
      m_RotationOrder: 4
    m_heightMaskType: 1
    m_heightMaskUnit: 1
    m_relativeHeightMin: -10
    m_relativeHeightMax: 10
    m_absoluteHeightMin: 2.5
    m_absoluteHeightMax: 22.5
    m_seaLevelRelativeHeightMin: -109876.55
    m_seaLevelRelativeHeightMax: 109876.55
    tree1active: 0
    tree2active: 0
    m_slopeMaskCurve:
      serializedVersion: 2
      m_Curve:
      - serializedVersion: 3
        time: 0
        value: 1
        inSlope: 0
        outSlope: 0
        tangentMode: 0
        weightedMode: 0
        inWeight: 0
        outWeight: 0
      - serializedVersion: 3
        time: 1
        value: 0
        inSlope: 0
        outSlope: 0
        tangentMode: 0
        weightedMode: 0
        inWeight: 0
        outWeight: 0
      m_PreInfinity: 2
      m_PostInfinity: 2
      m_RotationOrder: 4
    m_slopeMin: 0
    m_slopeMax: 0.1
    m_distanceMaskAxes: 0
    m_gaiaNoiseSettings:
      m_translation: {x: 0, y: 0, z: 0}
      m_rotation: {x: 0, y: 0, z: 0}
      m_scale: {x: 10, y: 1, z: 10}
      m_noiseTypeName: Perlin
      m_noiseTypeParams: 
      m_fractalTypeName: Fbm
      m_fractalTypeParams: 
      m_warpEnabled: 0
      m_warpIterations: 0
      m_warpStrength: 0
      m_warpOffset: {x: 0, y: 0, z: 0, w: 0}
    m_noiseSettings: {fileID: 0}
    m_noiseToolSettings:
      worldHeightRemap: {x: 0, y: 0}
      coordSpace: 0
      noiseAssetGUID: 
    m_ShowNoiseTransformSettings: 0
    m_ShowNoisePreviewTexture: 1
    m_noisePreviewTextureLocked: 0
    m_ShowNoiseTypeSettings: 0
    m_scaleNoiseToTerrainSize: 0
    m_collisionMaskExpanded: 1
    m_collisionMasks:
    - m_active: 1
      m_invert: 0
      m_type: 1
      m_treeSpawnRuleGUID: f36c4603-1ce3-4559-a4e8-e89230637194
      m_tag: PW - Building
      m_Radius: 12
      m_growShrinkDistance: 0
      m_layerMask:
        serializedVersion: 2
        m_Bits: 0
      m_layerMaskLayerNames: []
    - m_active: 1
      m_invert: 0
      m_type: 1
      m_treeSpawnRuleGUID: f36c4603-1ce3-4559-a4e8-e89230637194
      m_tag: PW - Prop
      m_Radius: 1.19
      m_growShrinkDistance: 0
      m_layerMask:
        serializedVersion: 2
        m_Bits: 0
      m_layerMaskLayerNames: []
    - m_active: 1
      m_invert: 0
      m_type: 1
      m_treeSpawnRuleGUID: f36c4603-1ce3-4559-a4e8-e89230637194
      m_tag: PW - Prop
      m_Radius: 1.19
      m_growShrinkDistance: 0
      m_layerMask:
        serializedVersion: 2
        m_Bits: 0
      m_layerMaskLayerNames: []
    - m_active: 1
      m_invert: 0
      m_type: 2
      m_treeSpawnRuleGUID: f36c4603-1ce3-4559-a4e8-e89230637194
      m_tag: 
      m_Radius: 2.87
      m_growShrinkDistance: 5
      m_layerMask:
        serializedVersion: 2
        m_Bits: 7168
      m_layerMaskLayerNames:
      - PW_Object_Small
      - PW_Object_Medium
      - PW_Object_Large
    m_erosionMaskOutput: 0
    m_erosionSimScale: 9
    m_erosionHydroTimeDelta: 0.05
    m_erosionHydroIterations: 15
    m_erosionThermalTimeDelta: 0.01
    m_erosionThermalIterations: 80
    m_erosionThermalReposeAngle: 80
    m_erosionPrecipRate: 0.5
    m_erosionEvaporationRate: 0.5
    m_erosionFlowRate: 0.5
    m_erosionSedimentCapacity: 0.5
    m_erosionSedimentDepositRate: 0.8
    m_erosionSedimentDissolveRate: 0.5
    m_erosionRiverBankDepositRate: 7
    m_erosionRiverBankDissolveRate: 5
    m_erosionRiverBedDepositRate: 5
    m_erosionRiverBedDissolveRate: 5
    m_erosionShowAdvancedUI: 0
    m_erosionShowThermalUI: 0
    m_erosionShowWaterUI: 0
    m_erosionShowSedimentUI: 0
    m_erosionShowRiverBankUI: 0
    m_smoothVerticality: 0
    m_smoothBlurRadius: 1
    m_textureMaskSpawnRuleGUID: 
    m_concavity: 1
    m_concavityFeatureSize: 10
    m_foldedOut: 0
    m_selectedWorldBiomeMaskGUID: 
    m_growAndShrinkValue: 0
    m_globalSpawnerMaskStackRT: {fileID: 0}
  m_clearSpawnsToggleTrees: 0
  m_clearSpawnsToggleDetails: 0
  m_clearSpawnsToggleGOs: 0
  m_clearSpawnsToggleSpawnExtensions: 0
  m_clearSpawnsToggleProbes: 0
  m_clearSpawnsFor: 1
  m_clearSpawnsFrom: 0
  m_lastGUIDSaved: 
