%YAML 1.1
%TAG !u! tag:unity3d.com,2011:
--- !u!114 &11400000
MonoBehaviour:
  m_ObjectHideFlags: 0
  m_CorrespondingSourceObject: {fileID: 0}
  m_PrefabInstance: {fileID: 0}
  m_PrefabAsset: {fileID: 0}
  m_GameObject: {fileID: 0}
  m_Enabled: 1
  m_EditorHideFlags: 0
  m_Script: {fileID: 11500000, guid: 4cc9961a916782e48bc0339e84343ca6, type: 3}
  m_Name: 20210314-170716 Creating World
  m_EditorClassIdentifier: 
  m_targeSizePreset: 3
  m_qualityPreset: 2
  m_xTiles: 1
  m_zTiles: 1
  m_tileSize: 1024
  m_tileHeight: 1024
  m_dateTimeString: 20210314 - 170716
  m_seaLevel: 50
  m_createInScene: 0
  m_autoUnloadScenes: 0
  m_applyFloatingPointFix: 0
  m_centerOffset: {x: 0, y: 0}
  m_isWorldMap: 0
  m_gaiaDefaults: {fileID: 1936982125905464006}
  m_spawnerPresetList: []
--- !u!114 &1936982125905464006
MonoBehaviour:
  m_ObjectHideFlags: 0
  m_CorrespondingSourceObject: {fileID: 0}
  m_PrefabInstance: {fileID: 0}
  m_PrefabAsset: {fileID: 0}
  m_GameObject: {fileID: 0}
  m_Enabled: 1
  m_EditorHideFlags: 0
  m_Script: {fileID: 11500000, guid: de82eef1d1f4fe64bb00feb5caaadbd7, type: 3}
  m_Name: Gaia Defaults
  m_EditorClassIdentifier: 
  m_defaultsID: 43d3c9da-e521-49e3-961f-fcfc4ba338c7
  m_seaLevel: 50
  m_beachHeight: 5
  m_pixelError: 5
  m_baseMapDist: 1024
  m_shadowCastingMode: 1
  m_material: {fileID: 0}
  m_physicsMaterial: {fileID: 0}
  m_draw: 1
  m_detailDistance: 190
  m_detailDensity: 0.5
  m_treeDistance: 1000
  m_billboardStart: 90
  m_fadeLength: 50
  m_maxMeshTrees: 50
  m_speed: 0.3
  m_size: 0.2
  m_bending: 0.1
  m_grassTint: {r: 0.7058824, g: 0.7058824, b: 0.7058824, a: 1}
  m_terrainSize: 1024
  m_terrainHeight: 1024
  m_spawnDensity: 0.8
  m_heightmapResolution: 2049
  m_detailResolution: 512
  m_detailResolutionPerPatch: 16
  m_controlTextureResolution: 1024
  m_baseMapSize: 1024
