%YAML 1.1
%TAG !u! tag:unity3d.com,2011:
--- !u!114 &-7693707334362681514
MonoBehaviour:
  m_ObjectHideFlags: 0
  m_CorrespondingSourceObject: {fileID: 0}
  m_PrefabInstance: {fileID: 0}
  m_PrefabAsset: {fileID: 0}
  m_GameObject: {fileID: 0}
  m_Enabled: 1
  m_EditorHideFlags: 0
  m_Script: {fileID: 11500000, guid: f1d61257710f55f478816040e1d1dfc9, type: 3}
  m_Name: Gaia Pro Sample-Texture
  m_EditorClassIdentifier: 
  m_resources:
    m_resourcesID: 94c21fc1-61e3-4f25-a41e-9eee92208111
    m_name: NewResources
    m_beachHeight: 5
    m_terrainHeight: 1000
    m_texturePrototypes:
    - m_name: GroundCracked00_Metallic
      m_texture: {fileID: 2800000, guid: a6071d9f240746e4ab2a340c5c591fdc, type: 3}
      m_textureFileName: 
      m_normal: {fileID: 2800000, guid: 2ba9024553263074f9d312c63ae484bf, type: 3}
      m_maskmap: {fileID: 2800000, guid: a6071d9f240746e4ab2a340c5c591fdc, type: 3}
      m_CTSSmoothnessMap: {fileID: 0}
      m_CTSRoughnessMap: {fileID: 0}
      m_CTSHeightMap: {fileID: 0}
      m_CTSAmbientOcclusionMap: {fileID: 0}
      m_normalFileName: 
      m_sizeX: 4
      m_sizeY: 4
      m_offsetX: 0
      m_offsetY: 0
      m_metallic: 0
      m_smoothness: 0.507
      m_spawnCriteria: []
      m_LayerGUID: 88143007c08272046a0fd78757415a4c
      m_normalScale: 1.2
      m_diffuseRemapMax: {x: 1, y: 1, z: 1, w: 1}
      m_diffuseRemapMin: {x: 0, y: 0, z: 0, w: 0}
      m_maskMapRemapMax: {x: 1, y: 1, z: 1, w: 1}
      m_maskMapRemapMin: {x: 0, y: 0, z: 0, w: 0}
      m_specularColor: {r: 0, g: 0, b: 0, a: 0}
      m_channelRemapFoldedOut: 0
    - m_name: AlienGround00_Terrain
      m_texture: {fileID: 2800000, guid: b69ba66da69cc034692c19f9cf739e26, type: 3}
      m_textureFileName: 
      m_normal: {fileID: 2800000, guid: 267d8ed54fc8fa44a945928a0985917a, type: 3}
      m_maskmap: {fileID: 2800000, guid: 2d62d4df284ef7f4597f0677bf6d417a, type: 3}
      m_CTSSmoothnessMap: {fileID: 0}
      m_CTSRoughnessMap: {fileID: 0}
      m_CTSHeightMap: {fileID: 0}
      m_CTSAmbientOcclusionMap: {fileID: 0}
      m_normalFileName: 
      m_sizeX: 12
      m_sizeY: 12
      m_offsetX: 0
      m_offsetY: 0
      m_metallic: 0
      m_smoothness: 0.247
      m_spawnCriteria: []
      m_LayerGUID: e0a223d9d50d8334db7e47fa147bf01d
      m_normalScale: 2.35
      m_diffuseRemapMax: {x: 1, y: 1, z: 1, w: 1}
      m_diffuseRemapMin: {x: 0, y: 0, z: 0, w: 0}
      m_maskMapRemapMax: {x: 1, y: 1, z: 1, w: 1}
      m_maskMapRemapMin: {x: 0, y: 0, z: 0, w: 0}
      m_specularColor: {r: 0, g: 0, b: 0, a: 0}
      m_channelRemapFoldedOut: 0
    - m_name: Texture_ground02_metalness
      m_texture: {fileID: 2800000, guid: 8d780d9a35bc69e40b128677e2d7288b, type: 3}
      m_textureFileName: 
      m_normal: {fileID: 2800000, guid: 522387ca1a72c1c4798e46a30041ae91, type: 3}
      m_maskmap: {fileID: 2800000, guid: 8d780d9a35bc69e40b128677e2d7288b, type: 3}
      m_CTSSmoothnessMap: {fileID: 0}
      m_CTSRoughnessMap: {fileID: 0}
      m_CTSHeightMap: {fileID: 0}
      m_CTSAmbientOcclusionMap: {fileID: 0}
      m_normalFileName: 
      m_sizeX: 12
      m_sizeY: 12
      m_offsetX: 0
      m_offsetY: 0
      m_metallic: 0.5
      m_smoothness: 0.2
      m_spawnCriteria: []
      m_LayerGUID: a3854e8074ed0a34fbf5a53dba60bad0
      m_normalScale: 2
      m_diffuseRemapMax: {x: 1, y: 1, z: 1, w: 1}
      m_diffuseRemapMin: {x: 0, y: 0, z: 0, w: 0}
      m_maskMapRemapMax: {x: 1, y: 1, z: 1, w: 1}
      m_maskMapRemapMin: {x: 0, y: 0, z: 0, w: 0}
      m_specularColor: {r: 0, g: 0, b: 0, a: 0}
      m_channelRemapFoldedOut: 0
    - m_name: AlienRock00_Albedo
      m_texture: {fileID: 2800000, guid: 639067d73acbe11489a7ef71d92b36c5, type: 3}
      m_textureFileName: 
      m_normal: {fileID: 2800000, guid: 812267047fa33bc43bfbddc41ac4addb, type: 3}
      m_maskmap: {fileID: 2800000, guid: fb1360dcc73d67c478b1192843bc46db, type: 3}
      m_CTSSmoothnessMap: {fileID: 0}
      m_CTSRoughnessMap: {fileID: 0}
      m_CTSHeightMap: {fileID: 0}
      m_CTSAmbientOcclusionMap: {fileID: 0}
      m_normalFileName: 
      m_sizeX: 21
      m_sizeY: 21
      m_offsetX: 0
      m_offsetY: 0
      m_metallic: 0.5
      m_smoothness: 0.2
      m_spawnCriteria: []
      m_LayerGUID: 8f95c0989e9f47248b2306805f572528
      m_normalScale: 2
      m_diffuseRemapMax: {x: 1, y: 1, z: 1, w: 1}
      m_diffuseRemapMin: {x: 0, y: 0, z: 0, w: 0}
      m_maskMapRemapMax: {x: 1, y: 1, z: 1, w: 1}
      m_maskMapRemapMin: {x: 0, y: 0, z: 0, w: 0}
      m_specularColor: {r: 0, g: 0, b: 0, a: 0}
      m_channelRemapFoldedOut: 0
    - m_name: OrganicGround00_Terrain
      m_texture: {fileID: 2800000, guid: 0a3e486c733a3ae4289b318271ef34af, type: 3}
      m_textureFileName: 
      m_normal: {fileID: 2800000, guid: 55e1d2b17ea36cf4c9d883ee0d52f906, type: 3}
      m_maskmap: {fileID: 2800000, guid: 120eaefc3bf0b5343a05709ea017ef88, type: 3}
      m_CTSSmoothnessMap: {fileID: 0}
      m_CTSRoughnessMap: {fileID: 0}
      m_CTSHeightMap: {fileID: 0}
      m_CTSAmbientOcclusionMap: {fileID: 0}
      m_normalFileName: 
      m_sizeX: 10
      m_sizeY: 10
      m_offsetX: 0
      m_offsetY: 0
      m_metallic: 0
      m_smoothness: 0
      m_spawnCriteria: []
      m_LayerGUID: 
      m_normalScale: 1.5
      m_diffuseRemapMax: {x: 1, y: 1, z: 1, w: 1}
      m_diffuseRemapMin: {x: 0, y: 0, z: 0, w: 0}
      m_maskMapRemapMax: {x: 1, y: 1, z: 1, w: 1}
      m_maskMapRemapMin: {x: 0, y: 0, z: 0, w: 0}
      m_specularColor: {r: 0, g: 0, b: 0, a: 0}
      m_channelRemapFoldedOut: 0
    m_detailPrototypes: []
    m_treePrototypes: []
    m_gameObjectPrototypes: []
    m_spawnExtensionPrototypes: []
    m_stampDistributionPrototypes: []
    m_worldBiomeMaskPrototypes: []
    m_probePrototypes: []
  m_x: 0
  m_y: 50
  m_z: 0
  m_width: 10
  m_height: 10
  m_rotation: 0
  m_isWorldmapSpawner: 0
  m_spawnRange: 512
  m_generateRandomSeed: 1
  m_randomSeed: 519898259
  m_spawnDensity: 0.8
  m_resourcesPath: 
  m_spawnerRules:
  - m_name: Sand
    m_guid: e3a93bcd-c9f0-4fed-a29e-7843490d769c
    m_useExtendedSpawn: 0
    m_minRequiredFitness: 0.25
    m_minInstanceRequiredFitness: 0
    m_failureRate: 0
    m_maxInstances: 40000000
    m_ignoreMaxInstances: 0
    m_minDirection: 0
    m_maxDirection: 359.9
    m_locationIncrementMin: 25
    m_locationIncrementMax: 45
    m_jitterPercent: 1
    m_boundsCheckQuality: 25
    m_resourceType: 0
    m_resourceIdx: 0
    m_imageMasks: []
    m_visualisationColor: {r: 0.7686275, g: 0.3960784, b: 0.3921569, a: 1}
    m_noiseMask: 0
    m_noiseMaskSeed: 0
    m_noiseMaskOctaves: 8
    m_noiseMaskPersistence: 0.25
    m_noiseMaskFrequency: 1
    m_noiseMaskLacunarity: 1.5
    m_noiseZoom: 50
    m_noiseStrength: 1
    m_noiseInvert: 0
    m_isActive: 1
    m_isFoldedOut: 0
    m_currInstanceCnt: 0
    m_activeInstanceCnt: 0
    m_inactiveInstanceCnt: 0
    m_resourceSettingsFoldedOut: 1
    m_isHelpActive: 0
    m_spawnedInstances: 0
    m_goSpawnTargetMode: 0
    m_goSpawnTarget: {fileID: 0}
    m_terrainGOSpawnTargetName: Gaia Game Object Spawns
    m_terrainDetailDensity: 15
    m_terrainDetailMinFitness: 0.5
    m_terrainDetailFitnessBeginFadeOut: 0.6
    m_createdBiomeController: {fileID: 0}
    m_visibleInSceneHierarchy: 1
    m_usesBoxStandIn: 0
    m_boundsCollisionCheck: 0
  - m_name: OrganicGround00
    m_guid: 236f26f0-f7f4-4860-889a-a1efeb531cc5
    m_useExtendedSpawn: 0
    m_minRequiredFitness: 0.25
    m_minInstanceRequiredFitness: 0
    m_failureRate: 0
    m_maxInstances: 40000000
    m_ignoreMaxInstances: 0
    m_minDirection: 0
    m_maxDirection: 359.9
    m_locationIncrementMin: 25
    m_locationIncrementMax: 45
    m_jitterPercent: 1
    m_boundsCheckQuality: 25
    m_resourceType: 0
    m_resourceIdx: 4
    m_imageMasks:
    - m_active: 1
      m_invert: 0
      m_hasErrors: 0
      m_influence: 0
      m_operation: 2
      m_blendMode: 0
      m_imageMaskLocation: 1
      m_strength: 1
      m_seaLevel: 25
      m_maxWorldHeight: 94.126434
      m_minWorldHeight: 0
      m_xOffSet: 0
      m_zOffSet: 0
      m_xOffSetScalar: 0
      m_zOffSetScalar: 0
      m_imageMaskTextureGUID: 
      m_imageMaskFilterMode: 0
      m_imageMaskColorSelectionColor: {r: 1, g: 1, b: 1, a: 1}
      m_imageMaskColorSelectionAccuracy: 0.5
      m_distanceMaskCurve:
        serializedVersion: 2
        m_Curve:
        - serializedVersion: 3
          time: 0
          value: 1
          inSlope: 0
          outSlope: 0
          tangentMode: 0
          weightedMode: 0
          inWeight: 0
          outWeight: 0
        - serializedVersion: 3
          time: 1
          value: 0
          inSlope: 0
          outSlope: 0
          tangentMode: 0
          weightedMode: 0
          inWeight: 0
          outWeight: 0
        m_PreInfinity: 2
        m_PostInfinity: 2
        m_RotationOrder: 4
      m_heightMaskCurve:
        serializedVersion: 2
        m_Curve:
        - serializedVersion: 3
          time: 0
          value: 0
          inSlope: 0
          outSlope: 0
          tangentMode: 0
          weightedMode: 0
          inWeight: 0
          outWeight: 0
        - serializedVersion: 3
          time: 1
          value: 1
          inSlope: 0
          outSlope: 0
          tangentMode: 0
          weightedMode: 0
          inWeight: 0
          outWeight: 0
        m_PreInfinity: 2
        m_PostInfinity: 2
        m_RotationOrder: 4
      m_strengthTransformCurve:
        serializedVersion: 2
        m_Curve:
        - serializedVersion: 3
          time: 0
          value: 0
          inSlope: 1
          outSlope: 1
          tangentMode: 0
          weightedMode: 0
          inWeight: 0
          outWeight: 0
        - serializedVersion: 3
          time: 1
          value: 1
          inSlope: 1
          outSlope: 1
          tangentMode: 0
          weightedMode: 0
          inWeight: 0
          outWeight: 0
        m_PreInfinity: 2
        m_PostInfinity: 2
        m_RotationOrder: 4
      m_heightMaskType: 1
      m_heightMaskUnit: 1
      m_relativeHeightMin: 25
      m_relativeHeightMax: 75
      m_absoluteHeightMin: 50
      m_absoluteHeightMax: 150
      m_seaLevelRelativeHeightMin: -109876.55
      m_seaLevelRelativeHeightMax: 109876.55
      tree1active: 0
      tree2active: 0
      m_slopeMaskCurve:
        serializedVersion: 2
        m_Curve:
        - serializedVersion: 3
          time: 0
          value: 0
          inSlope: 1
          outSlope: 1
          tangentMode: 0
          weightedMode: 0
          inWeight: 0
          outWeight: 0
        - serializedVersion: 3
          time: 1
          value: 1
          inSlope: 1
          outSlope: 1
          tangentMode: 0
          weightedMode: 0
          inWeight: 0
          outWeight: 0
        m_PreInfinity: 2
        m_PostInfinity: 2
        m_RotationOrder: 4
      m_slopeMin: 0
      m_slopeMax: 0.1
      m_distanceMaskAxes: 0
      m_gaiaNoiseSettings:
        m_translation: {x: 0, y: 0, z: 0}
        m_rotation: {x: 0, y: 0, z: 0}
        m_scale: {x: 10, y: 1, z: 10}
        m_noiseTypeName: Perlin
        m_noiseTypeParams: 
        m_fractalTypeName: Fbm
        m_fractalTypeParams: 
        m_warpEnabled: 0
        m_warpIterations: 0
        m_warpStrength: 0
        m_warpOffset: {x: 0, y: 0, z: 0, w: 0}
      m_noiseSettings: {fileID: 0}
      m_noiseToolSettings:
        worldHeightRemap: {x: 0, y: 0}
        coordSpace: 0
        noiseAssetGUID: 
      m_ShowNoiseTransformSettings: 0
      m_ShowNoisePreviewTexture: 1
      m_noisePreviewTextureLocked: 0
      m_ShowNoiseTypeSettings: 0
      m_scaleNoiseToTerrainSize: 0
      m_collisionMaskExpanded: 1
      m_collisionMasks: []
      m_erosionMaskOutput: 0
      m_erosionSimScale: 9
      m_erosionHydroTimeDelta: 0.05
      m_erosionHydroIterations: 15
      m_erosionThermalTimeDelta: 0.01
      m_erosionThermalIterations: 80
      m_erosionThermalReposeAngle: 80
      m_erosionPrecipRate: 0.5
      m_erosionEvaporationRate: 0.5
      m_erosionFlowRate: 0.5
      m_erosionSedimentCapacity: 0.5
      m_erosionSedimentDepositRate: 0.8
      m_erosionSedimentDissolveRate: 0.5
      m_erosionRiverBankDepositRate: 7
      m_erosionRiverBankDissolveRate: 5
      m_erosionRiverBedDepositRate: 5
      m_erosionRiverBedDissolveRate: 5
      m_erosionShowAdvancedUI: 0
      m_erosionShowThermalUI: 0
      m_erosionShowWaterUI: 0
      m_erosionShowSedimentUI: 0
      m_erosionShowRiverBankUI: 0
      m_smoothVerticality: 0
      m_smoothBlurRadius: 1
      m_textureMaskSpawnRuleGUID: 
      m_concavity: 1
      m_concavityFeatureSize: 10
      m_foldedOut: 1
      m_selectedWorldBiomeMaskGUID: 
      m_growAndShrinkValue: 0
      m_globalSpawnerMaskStackRT: {fileID: 0}
    - m_active: 1
      m_invert: 0
      m_hasErrors: 0
      m_influence: 0
      m_operation: 4
      m_blendMode: 0
      m_imageMaskLocation: 1
      m_strength: 1
      m_seaLevel: 25
      m_maxWorldHeight: 94.126434
      m_minWorldHeight: 0
      m_xOffSet: 0
      m_zOffSet: 0
      m_xOffSetScalar: 0
      m_zOffSetScalar: 0
      m_imageMaskTextureGUID: 
      m_imageMaskFilterMode: 0
      m_imageMaskColorSelectionColor: {r: 1, g: 1, b: 1, a: 1}
      m_imageMaskColorSelectionAccuracy: 0.5
      m_distanceMaskCurve:
        serializedVersion: 2
        m_Curve:
        - serializedVersion: 3
          time: 0
          value: 1
          inSlope: 0
          outSlope: 0
          tangentMode: 0
          weightedMode: 0
          inWeight: 0
          outWeight: 0
        - serializedVersion: 3
          time: 1
          value: 0
          inSlope: 0
          outSlope: 0
          tangentMode: 0
          weightedMode: 0
          inWeight: 0
          outWeight: 0
        m_PreInfinity: 2
        m_PostInfinity: 2
        m_RotationOrder: 4
      m_heightMaskCurve:
        serializedVersion: 2
        m_Curve:
        - serializedVersion: 3
          time: 0
          value: 0
          inSlope: 0
          outSlope: 0
          tangentMode: 0
          weightedMode: 0
          inWeight: 0
          outWeight: 0
        - serializedVersion: 3
          time: 1
          value: 1
          inSlope: 0
          outSlope: 0
          tangentMode: 0
          weightedMode: 0
          inWeight: 0
          outWeight: 0
        m_PreInfinity: 2
        m_PostInfinity: 2
        m_RotationOrder: 4
      m_strengthTransformCurve:
        serializedVersion: 2
        m_Curve:
        - serializedVersion: 3
          time: 0
          value: 0
          inSlope: 1
          outSlope: 1
          tangentMode: 0
          weightedMode: 0
          inWeight: 0
          outWeight: 0
        - serializedVersion: 3
          time: 1
          value: 1
          inSlope: 1
          outSlope: 1
          tangentMode: 0
          weightedMode: 0
          inWeight: 0
          outWeight: 0
        m_PreInfinity: 2
        m_PostInfinity: 2
        m_RotationOrder: 4
      m_heightMaskType: 1
      m_heightMaskUnit: 1
      m_relativeHeightMin: 25
      m_relativeHeightMax: 75
      m_absoluteHeightMin: 50
      m_absoluteHeightMax: 150
      m_seaLevelRelativeHeightMin: -109876.55
      m_seaLevelRelativeHeightMax: 109876.55
      tree1active: 0
      tree2active: 0
      m_slopeMaskCurve:
        serializedVersion: 2
        m_Curve:
        - serializedVersion: 3
          time: 0
          value: 0
          inSlope: 1
          outSlope: 1
          tangentMode: 0
          weightedMode: 0
          inWeight: 0
          outWeight: 0
        - serializedVersion: 3
          time: 1
          value: 1
          inSlope: 1
          outSlope: 1
          tangentMode: 0
          weightedMode: 0
          inWeight: 0
          outWeight: 0
        m_PreInfinity: 2
        m_PostInfinity: 2
        m_RotationOrder: 4
      m_slopeMin: 0
      m_slopeMax: 0.1
      m_distanceMaskAxes: 0
      m_gaiaNoiseSettings:
        m_translation: {x: 0, y: 0, z: 0}
        m_rotation: {x: 0, y: 0, z: 0}
        m_scale: {x: 10, y: 1, z: 10}
        m_noiseTypeName: Ridge
        m_noiseTypeParams: 
        m_fractalTypeName: Fbm
        m_fractalTypeParams: '{"warpOffsets":{"x":2.5,"y":1.399999976158142,"z":3.200000047683716,"w":2.700000047683716},"octavesMinMax":{"x":0.0,"y":16.0},"amplitudeMinMax":{"x":0.0,"y":1.0},"frequencyMinMax":{"x":0.0,"y":2.0},"lacunarityMinMax":{"x":0.0,"y":4.0},"persistenceMinMax":{"x":0.0,"y":1.0},"warpIterationsMinMax":{"x":0.0,"y":8.0},"warpStrengthMinMax":{"x":-2.0,"y":2.0},"octaves":9.600000381469727,"amplitude":0.5600000023841858,"frequency":1.2899999618530274,"persistence":0.5130000114440918,"lacunarity":3.009999990463257,"warpIterations":1.0,"warpStrength":0.6600000262260437,"warpEnabled":true,"warpExpanded":true}'
        m_warpEnabled: 0
        m_warpIterations: 0
        m_warpStrength: 0
        m_warpOffset: {x: 0, y: 0, z: 0, w: 0}
      m_noiseSettings: {fileID: 0}
      m_noiseToolSettings:
        worldHeightRemap: {x: 0, y: 0}
        coordSpace: 0
        noiseAssetGUID: 
      m_ShowNoiseTransformSettings: 0
      m_ShowNoisePreviewTexture: 1
      m_noisePreviewTextureLocked: 0
      m_ShowNoiseTypeSettings: 0
      m_scaleNoiseToTerrainSize: 0
      m_collisionMaskExpanded: 1
      m_collisionMasks: []
      m_erosionMaskOutput: 0
      m_erosionSimScale: 9
      m_erosionHydroTimeDelta: 0.05
      m_erosionHydroIterations: 15
      m_erosionThermalTimeDelta: 0.01
      m_erosionThermalIterations: 80
      m_erosionThermalReposeAngle: 80
      m_erosionPrecipRate: 0.5
      m_erosionEvaporationRate: 0.5
      m_erosionFlowRate: 0.5
      m_erosionSedimentCapacity: 0.5
      m_erosionSedimentDepositRate: 0.8
      m_erosionSedimentDissolveRate: 0.5
      m_erosionRiverBankDepositRate: 7
      m_erosionRiverBankDissolveRate: 5
      m_erosionRiverBedDepositRate: 5
      m_erosionRiverBedDissolveRate: 5
      m_erosionShowAdvancedUI: 0
      m_erosionShowThermalUI: 0
      m_erosionShowWaterUI: 0
      m_erosionShowSedimentUI: 0
      m_erosionShowRiverBankUI: 0
      m_smoothVerticality: 0
      m_smoothBlurRadius: 1
      m_textureMaskSpawnRuleGUID: 
      m_concavity: 1
      m_concavityFeatureSize: 10
      m_foldedOut: 1
      m_selectedWorldBiomeMaskGUID: 
      m_growAndShrinkValue: 0
      m_globalSpawnerMaskStackRT: {fileID: 0}
    m_visualisationColor: {r: 0.04255432, g: 1, b: 0.18293491, a: 1}
    m_noiseMask: 0
    m_noiseMaskSeed: 0
    m_noiseMaskOctaves: 8
    m_noiseMaskPersistence: 0.25
    m_noiseMaskFrequency: 1
    m_noiseMaskLacunarity: 1.5
    m_noiseZoom: 50
    m_noiseStrength: 1
    m_noiseInvert: 0
    m_isActive: 1
    m_isFoldedOut: 1
    m_currInstanceCnt: 0
    m_activeInstanceCnt: 0
    m_inactiveInstanceCnt: 0
    m_resourceSettingsFoldedOut: 1
    m_isHelpActive: 0
    m_spawnedInstances: 0
    m_goSpawnTargetMode: 0
    m_goSpawnTarget: {fileID: 0}
    m_terrainGOSpawnTargetName: Gaia Game Object Spawns
    m_terrainDetailDensity: 15
    m_terrainDetailMinFitness: 0.5
    m_terrainDetailFitnessBeginFadeOut: 0.6
    m_createdBiomeController: {fileID: 0}
    m_visibleInSceneHierarchy: 1
    m_usesBoxStandIn: 0
    m_boundsCollisionCheck: 0
  - m_name: Ground
    m_guid: 4751b304-b60a-469e-9bed-b29ce6cada5a
    m_useExtendedSpawn: 0
    m_minRequiredFitness: 0.25
    m_minInstanceRequiredFitness: 0
    m_failureRate: 0
    m_maxInstances: 40000000
    m_ignoreMaxInstances: 0
    m_minDirection: 0
    m_maxDirection: 359.9
    m_locationIncrementMin: 25
    m_locationIncrementMax: 45
    m_jitterPercent: 1
    m_boundsCheckQuality: 25
    m_resourceType: 0
    m_resourceIdx: 1
    m_imageMasks:
    - m_active: 1
      m_invert: 0
      m_hasErrors: 0
      m_influence: 0
      m_operation: 2
      m_blendMode: 0
      m_imageMaskLocation: 1
      m_strength: 1
      m_seaLevel: 25
      m_maxWorldHeight: 94.126434
      m_minWorldHeight: 0
      m_xOffSet: 0
      m_zOffSet: 0
      m_xOffSetScalar: 0
      m_zOffSetScalar: 0
      m_imageMaskTextureGUID: 
      m_imageMaskFilterMode: 0
      m_imageMaskColorSelectionColor: {r: 1, g: 1, b: 1, a: 1}
      m_imageMaskColorSelectionAccuracy: 0.5
      m_distanceMaskCurve:
        serializedVersion: 2
        m_Curve:
        - serializedVersion: 3
          time: 0
          value: 1
          inSlope: 0
          outSlope: 0
          tangentMode: 0
          weightedMode: 0
          inWeight: 0
          outWeight: 0
        - serializedVersion: 3
          time: 1
          value: 0
          inSlope: 0
          outSlope: 0
          tangentMode: 0
          weightedMode: 0
          inWeight: 0
          outWeight: 0
        m_PreInfinity: 2
        m_PostInfinity: 2
        m_RotationOrder: 4
      m_heightMaskCurve:
        serializedVersion: 2
        m_Curve:
        - serializedVersion: 3
          time: 0.7956352
          value: 0.0037231445
          inSlope: 0
          outSlope: 0
          tangentMode: 0
          weightedMode: 0
          inWeight: 0
          outWeight: 0
        - serializedVersion: 3
          time: 0.8973999
          value: 1.001854
          inSlope: 0
          outSlope: 0
          tangentMode: 0
          weightedMode: 0
          inWeight: 0
          outWeight: 0
        m_PreInfinity: 2
        m_PostInfinity: 2
        m_RotationOrder: 4
      m_strengthTransformCurve:
        serializedVersion: 2
        m_Curve:
        - serializedVersion: 3
          time: 0
          value: 0
          inSlope: 1
          outSlope: 1
          tangentMode: 34
          weightedMode: 0
          inWeight: 0
          outWeight: 0
        - serializedVersion: 3
          time: 1
          value: 1
          inSlope: 1
          outSlope: 1
          tangentMode: 34
          weightedMode: 0
          inWeight: 0
          outWeight: 0
        m_PreInfinity: 2
        m_PostInfinity: 2
        m_RotationOrder: 4
      m_heightMaskType: 1
      m_heightMaskUnit: 1
      m_relativeHeightMin: 4
      m_relativeHeightMax: 7
      m_absoluteHeightMin: 30.56002
      m_absoluteHeightMax: 33.56002
      m_seaLevelRelativeHeightMin: -109876.55
      m_seaLevelRelativeHeightMax: 109876.55
      tree1active: 0
      tree2active: 0
      m_slopeMaskCurve:
        serializedVersion: 2
        m_Curve:
        - serializedVersion: 3
          time: 0
          value: 1
          inSlope: 0
          outSlope: 0
          tangentMode: 0
          weightedMode: 0
          inWeight: 0
          outWeight: 0
        - serializedVersion: 3
          time: 1
          value: 0
          inSlope: 0
          outSlope: 0
          tangentMode: 0
          weightedMode: 0
          inWeight: 0
          outWeight: 0
        m_PreInfinity: 2
        m_PostInfinity: 2
        m_RotationOrder: 4
      m_slopeMin: 0
      m_slopeMax: 0.1
      m_distanceMaskAxes: 0
      m_gaiaNoiseSettings:
        m_translation: {x: 0, y: 0, z: 0}
        m_rotation: {x: 0, y: 0, z: 0}
        m_scale: {x: 10, y: 1, z: 10}
        m_noiseTypeName: Perlin
        m_noiseTypeParams: 
        m_fractalTypeName: Fbm
        m_fractalTypeParams: 
        m_warpEnabled: 0
        m_warpIterations: 0
        m_warpStrength: 0
        m_warpOffset: {x: 0, y: 0, z: 0, w: 0}
      m_noiseSettings: {fileID: 0}
      m_noiseToolSettings:
        worldHeightRemap: {x: 0, y: 0}
        coordSpace: 0
        noiseAssetGUID: 
      m_ShowNoiseTransformSettings: 0
      m_ShowNoisePreviewTexture: 1
      m_noisePreviewTextureLocked: 0
      m_ShowNoiseTypeSettings: 0
      m_scaleNoiseToTerrainSize: 0
      m_collisionMaskExpanded: 1
      m_collisionMasks: []
      m_erosionMaskOutput: 0
      m_erosionSimScale: 9
      m_erosionHydroTimeDelta: 0.05
      m_erosionHydroIterations: 15
      m_erosionThermalTimeDelta: 0.01
      m_erosionThermalIterations: 80
      m_erosionThermalReposeAngle: 80
      m_erosionPrecipRate: 0.5
      m_erosionEvaporationRate: 0.5
      m_erosionFlowRate: 0.5
      m_erosionSedimentCapacity: 0.5
      m_erosionSedimentDepositRate: 0.8
      m_erosionSedimentDissolveRate: 0.5
      m_erosionRiverBankDepositRate: 7
      m_erosionRiverBankDissolveRate: 5
      m_erosionRiverBedDepositRate: 5
      m_erosionRiverBedDissolveRate: 5
      m_erosionShowAdvancedUI: 0
      m_erosionShowThermalUI: 0
      m_erosionShowWaterUI: 0
      m_erosionShowSedimentUI: 0
      m_erosionShowRiverBankUI: 0
      m_smoothVerticality: 0
      m_smoothBlurRadius: 1
      m_textureMaskSpawnRuleGUID: 
      m_concavity: 1
      m_concavityFeatureSize: 10
      m_foldedOut: 1
      m_selectedWorldBiomeMaskGUID: 
      m_growAndShrinkValue: 0
      m_globalSpawnerMaskStackRT: {fileID: 0}
    - m_active: 1
      m_invert: 0
      m_hasErrors: 0
      m_influence: 0
      m_operation: 4
      m_blendMode: 3
      m_imageMaskLocation: 1
      m_strength: 1
      m_seaLevel: 25
      m_maxWorldHeight: 94.126434
      m_minWorldHeight: 0
      m_xOffSet: 0
      m_zOffSet: 0
      m_xOffSetScalar: 0
      m_zOffSetScalar: 0
      m_imageMaskTextureGUID: 
      m_imageMaskFilterMode: 0
      m_imageMaskColorSelectionColor: {r: 1, g: 1, b: 1, a: 1}
      m_imageMaskColorSelectionAccuracy: 0.5
      m_distanceMaskCurve:
        serializedVersion: 2
        m_Curve:
        - serializedVersion: 3
          time: 0
          value: 1
          inSlope: 0
          outSlope: 0
          tangentMode: 0
          weightedMode: 0
          inWeight: 0
          outWeight: 0
        - serializedVersion: 3
          time: 1
          value: 0
          inSlope: 0
          outSlope: 0
          tangentMode: 0
          weightedMode: 0
          inWeight: 0
          outWeight: 0
        m_PreInfinity: 2
        m_PostInfinity: 2
        m_RotationOrder: 4
      m_heightMaskCurve:
        serializedVersion: 2
        m_Curve:
        - serializedVersion: 3
          time: 0
          value: 0
          inSlope: 0
          outSlope: 0
          tangentMode: 0
          weightedMode: 0
          inWeight: 0
          outWeight: 0
        - serializedVersion: 3
          time: 1
          value: 1
          inSlope: 0
          outSlope: 0
          tangentMode: 0
          weightedMode: 0
          inWeight: 0
          outWeight: 0
        m_PreInfinity: 2
        m_PostInfinity: 2
        m_RotationOrder: 4
      m_strengthTransformCurve:
        serializedVersion: 2
        m_Curve:
        - serializedVersion: 3
          time: 0
          value: 0
          inSlope: 0
          outSlope: 0
          tangentMode: 0
          weightedMode: 0
          inWeight: 0
          outWeight: 0
        - serializedVersion: 3
          time: 0.42998987
          value: 0.0031430125
          inSlope: 0
          outSlope: 0
          tangentMode: 0
          weightedMode: 0
          inWeight: 0.33333334
          outWeight: 0.33333334
        - serializedVersion: 3
          time: 0.5820643
          value: 1.0031474
          inSlope: 0
          outSlope: 0
          tangentMode: 0
          weightedMode: 0
          inWeight: 0.33333334
          outWeight: 0.33333334
        - serializedVersion: 3
          time: 1
          value: 1
          inSlope: 0
          outSlope: 0
          tangentMode: 0
          weightedMode: 0
          inWeight: 0
          outWeight: 0
        m_PreInfinity: 2
        m_PostInfinity: 2
        m_RotationOrder: 4
      m_heightMaskType: 0
      m_heightMaskUnit: 1
      m_relativeHeightMin: -1225
      m_relativeHeightMax: -1175
      m_absoluteHeightMin: 25
      m_absoluteHeightMax: 75
      m_seaLevelRelativeHeightMin: -109876.55
      m_seaLevelRelativeHeightMax: 109876.55
      tree1active: 0
      tree2active: 0
      m_slopeMaskCurve:
        serializedVersion: 2
        m_Curve:
        - serializedVersion: 3
          time: 0
          value: 1
          inSlope: 0
          outSlope: 0
          tangentMode: 0
          weightedMode: 0
          inWeight: 0
          outWeight: 0
        - serializedVersion: 3
          time: 1
          value: 0
          inSlope: 0
          outSlope: 0
          tangentMode: 0
          weightedMode: 0
          inWeight: 0
          outWeight: 0
        m_PreInfinity: 2
        m_PostInfinity: 2
        m_RotationOrder: 4
      m_slopeMin: 0
      m_slopeMax: 0.1
      m_distanceMaskAxes: 0
      m_gaiaNoiseSettings:
        m_translation: {x: 0, y: 0, z: 0}
        m_rotation: {x: 0, y: 0, z: 0}
        m_scale: {x: 76.10758, y: 1, z: 76.10758}
        m_noiseTypeName: Perlin
        m_noiseTypeParams: 
        m_fractalTypeName: Fbm
        m_fractalTypeParams: '{"warpOffsets":{"x":2.5,"y":1.399999976158142,"z":3.200000047683716,"w":2.700000047683716},"octavesMinMax":{"x":0.0,"y":16.0},"amplitudeMinMax":{"x":0.0,"y":1.0},"frequencyMinMax":{"x":0.0,"y":2.0},"lacunarityMinMax":{"x":0.0,"y":4.0},"persistenceMinMax":{"x":0.0,"y":1.0},"warpIterationsMinMax":{"x":0.0,"y":8.0},"warpStrengthMinMax":{"x":-2.0,"y":2.0},"octaves":8.0,"amplitude":0.49900001287460329,"frequency":1.065999984741211,"persistence":0.5460000038146973,"lacunarity":1.9500000476837159,"warpIterations":1.0,"warpStrength":0.5,"warpEnabled":false,"warpExpanded":true}'
        m_warpEnabled: 0
        m_warpIterations: 0
        m_warpStrength: 0
        m_warpOffset: {x: 0, y: 0, z: 0, w: 0}
      m_noiseSettings: {fileID: 0}
      m_noiseToolSettings:
        worldHeightRemap: {x: 0, y: 0}
        coordSpace: 0
        noiseAssetGUID: 
      m_ShowNoiseTransformSettings: 0
      m_ShowNoisePreviewTexture: 0
      m_noisePreviewTextureLocked: 1
      m_ShowNoiseTypeSettings: 0
      m_scaleNoiseToTerrainSize: 0
      m_collisionMaskExpanded: 1
      m_collisionMasks: []
      m_erosionMaskOutput: 0
      m_erosionSimScale: 9
      m_erosionHydroTimeDelta: 0.05
      m_erosionHydroIterations: 15
      m_erosionThermalTimeDelta: 0.01
      m_erosionThermalIterations: 80
      m_erosionThermalReposeAngle: 80
      m_erosionPrecipRate: 0.5
      m_erosionEvaporationRate: 0.5
      m_erosionFlowRate: 0.5
      m_erosionSedimentCapacity: 0.5
      m_erosionSedimentDepositRate: 0.8
      m_erosionSedimentDissolveRate: 0.5
      m_erosionRiverBankDepositRate: 7
      m_erosionRiverBankDissolveRate: 5
      m_erosionRiverBedDepositRate: 5
      m_erosionRiverBedDissolveRate: 5
      m_erosionShowAdvancedUI: 0
      m_erosionShowThermalUI: 0
      m_erosionShowWaterUI: 0
      m_erosionShowSedimentUI: 0
      m_erosionShowRiverBankUI: 0
      m_smoothVerticality: 0
      m_smoothBlurRadius: 1
      m_textureMaskSpawnRuleGUID: 
      m_concavity: 1
      m_concavityFeatureSize: 10
      m_foldedOut: 0
      m_selectedWorldBiomeMaskGUID: 
      m_growAndShrinkValue: 0
      m_globalSpawnerMaskStackRT: {fileID: 0}
    - m_active: 1
      m_invert: 0
      m_hasErrors: 0
      m_influence: 0
      m_operation: 2
      m_blendMode: 2
      m_imageMaskLocation: 1
      m_strength: 1
      m_seaLevel: 25
      m_maxWorldHeight: 94.126434
      m_minWorldHeight: 0
      m_xOffSet: 0
      m_zOffSet: 0
      m_xOffSetScalar: 0
      m_zOffSetScalar: 0
      m_imageMaskTextureGUID: 
      m_imageMaskFilterMode: 0
      m_imageMaskColorSelectionColor: {r: 1, g: 1, b: 1, a: 1}
      m_imageMaskColorSelectionAccuracy: 0.5
      m_distanceMaskCurve:
        serializedVersion: 2
        m_Curve:
        - serializedVersion: 3
          time: 0
          value: 1
          inSlope: 0
          outSlope: 0
          tangentMode: 0
          weightedMode: 0
          inWeight: 0
          outWeight: 0
        - serializedVersion: 3
          time: 1
          value: 0
          inSlope: 0
          outSlope: 0
          tangentMode: 0
          weightedMode: 0
          inWeight: 0
          outWeight: 0
        m_PreInfinity: 2
        m_PostInfinity: 2
        m_RotationOrder: 4
      m_heightMaskCurve:
        serializedVersion: 2
        m_Curve:
        - serializedVersion: 3
          time: 0.7956352
          value: 0.0037231445
          inSlope: 0
          outSlope: 0
          tangentMode: 0
          weightedMode: 0
          inWeight: 0
          outWeight: 0
        - serializedVersion: 3
          time: 0.8973999
          value: 1.001854
          inSlope: 0
          outSlope: 0
          tangentMode: 0
          weightedMode: 0
          inWeight: 0
          outWeight: 0
        m_PreInfinity: 2
        m_PostInfinity: 2
        m_RotationOrder: 4
      m_strengthTransformCurve:
        serializedVersion: 2
        m_Curve:
        - serializedVersion: 3
          time: 0
          value: 0
          inSlope: 1
          outSlope: 1
          tangentMode: 34
          weightedMode: 0
          inWeight: 0
          outWeight: 0
        - serializedVersion: 3
          time: 1
          value: 1
          inSlope: 1
          outSlope: 1
          tangentMode: 34
          weightedMode: 0
          inWeight: 0
          outWeight: 0
        m_PreInfinity: 2
        m_PostInfinity: 2
        m_RotationOrder: 4
      m_heightMaskType: 1
      m_heightMaskUnit: 1
      m_relativeHeightMin: 2
      m_relativeHeightMax: 5
      m_absoluteHeightMin: 28.56002
      m_absoluteHeightMax: 31.56002
      m_seaLevelRelativeHeightMin: -109876.55
      m_seaLevelRelativeHeightMax: 109876.55
      tree1active: 0
      tree2active: 0
      m_slopeMaskCurve:
        serializedVersion: 2
        m_Curve:
        - serializedVersion: 3
          time: 0
          value: 1
          inSlope: 0
          outSlope: 0
          tangentMode: 0
          weightedMode: 0
          inWeight: 0
          outWeight: 0
        - serializedVersion: 3
          time: 1
          value: 0
          inSlope: 0
          outSlope: 0
          tangentMode: 0
          weightedMode: 0
          inWeight: 0
          outWeight: 0
        m_PreInfinity: 2
        m_PostInfinity: 2
        m_RotationOrder: 4
      m_slopeMin: 0
      m_slopeMax: 0.1
      m_distanceMaskAxes: 0
      m_gaiaNoiseSettings:
        m_translation: {x: 0, y: 0, z: 0}
        m_rotation: {x: 0, y: 0, z: 0}
        m_scale: {x: 10, y: 1, z: 10}
        m_noiseTypeName: Perlin
        m_noiseTypeParams: 
        m_fractalTypeName: Fbm
        m_fractalTypeParams: 
        m_warpEnabled: 0
        m_warpIterations: 0
        m_warpStrength: 0
        m_warpOffset: {x: 0, y: 0, z: 0, w: 0}
      m_noiseSettings: {fileID: 0}
      m_noiseToolSettings:
        worldHeightRemap: {x: 0, y: 0}
        coordSpace: 0
        noiseAssetGUID: 
      m_ShowNoiseTransformSettings: 0
      m_ShowNoisePreviewTexture: 1
      m_noisePreviewTextureLocked: 0
      m_ShowNoiseTypeSettings: 0
      m_scaleNoiseToTerrainSize: 0
      m_collisionMaskExpanded: 1
      m_collisionMasks: []
      m_erosionMaskOutput: 0
      m_erosionSimScale: 9
      m_erosionHydroTimeDelta: 0.05
      m_erosionHydroIterations: 15
      m_erosionThermalTimeDelta: 0.01
      m_erosionThermalIterations: 80
      m_erosionThermalReposeAngle: 80
      m_erosionPrecipRate: 0.5
      m_erosionEvaporationRate: 0.5
      m_erosionFlowRate: 0.5
      m_erosionSedimentCapacity: 0.5
      m_erosionSedimentDepositRate: 0.8
      m_erosionSedimentDissolveRate: 0.5
      m_erosionRiverBankDepositRate: 7
      m_erosionRiverBankDissolveRate: 5
      m_erosionRiverBedDepositRate: 5
      m_erosionRiverBedDissolveRate: 5
      m_erosionShowAdvancedUI: 0
      m_erosionShowThermalUI: 0
      m_erosionShowWaterUI: 0
      m_erosionShowSedimentUI: 0
      m_erosionShowRiverBankUI: 0
      m_smoothVerticality: 0
      m_smoothBlurRadius: 1
      m_textureMaskSpawnRuleGUID: 
      m_concavity: 1
      m_concavityFeatureSize: 10
      m_foldedOut: 1
      m_selectedWorldBiomeMaskGUID: 
      m_growAndShrinkValue: 0
      m_globalSpawnerMaskStackRT: {fileID: 0}
    m_visualisationColor: {r: 0.64027286, g: 1, b: 0, a: 1}
    m_noiseMask: 0
    m_noiseMaskSeed: 0
    m_noiseMaskOctaves: 8
    m_noiseMaskPersistence: 0.25
    m_noiseMaskFrequency: 1
    m_noiseMaskLacunarity: 1.5
    m_noiseZoom: 50
    m_noiseStrength: 1
    m_noiseInvert: 0
    m_isActive: 1
    m_isFoldedOut: 0
    m_currInstanceCnt: 0
    m_activeInstanceCnt: 0
    m_inactiveInstanceCnt: 0
    m_resourceSettingsFoldedOut: 1
    m_isHelpActive: 0
    m_spawnedInstances: 0
    m_goSpawnTargetMode: 0
    m_goSpawnTarget: {fileID: 0}
    m_terrainGOSpawnTargetName: Gaia Game Object Spawns
    m_terrainDetailDensity: 15
    m_terrainDetailMinFitness: 0.5
    m_terrainDetailFitnessBeginFadeOut: 0.6
    m_createdBiomeController: {fileID: 0}
    m_visibleInSceneHierarchy: 1
    m_usesBoxStandIn: 0
    m_boundsCollisionCheck: 0
  - m_name: Stone Cover
    m_guid: 793a7bdb-0896-41ac-8cf9-27fdf2b000f3
    m_useExtendedSpawn: 0
    m_minRequiredFitness: 0.25
    m_minInstanceRequiredFitness: 0
    m_failureRate: 0
    m_maxInstances: 40000000
    m_ignoreMaxInstances: 0
    m_minDirection: 0
    m_maxDirection: 359.9
    m_locationIncrementMin: 25
    m_locationIncrementMax: 45
    m_jitterPercent: 1
    m_boundsCheckQuality: 25
    m_resourceType: 0
    m_resourceIdx: 2
    m_imageMasks:
    - m_active: 1
      m_invert: 0
      m_hasErrors: 0
      m_influence: 0
      m_operation: 3
      m_blendMode: 0
      m_imageMaskLocation: 1
      m_strength: 1
      m_seaLevel: 25
      m_maxWorldHeight: 94.126434
      m_minWorldHeight: 0
      m_xOffSet: 0
      m_zOffSet: 0
      m_xOffSetScalar: 0
      m_zOffSetScalar: 0
      m_imageMaskTextureGUID: 
      m_imageMaskFilterMode: 0
      m_imageMaskColorSelectionColor: {r: 1, g: 1, b: 1, a: 1}
      m_imageMaskColorSelectionAccuracy: 0.5
      m_distanceMaskCurve:
        serializedVersion: 2
        m_Curve:
        - serializedVersion: 3
          time: 0
          value: 1
          inSlope: 0
          outSlope: 0
          tangentMode: 0
          weightedMode: 0
          inWeight: 0
          outWeight: 0
        - serializedVersion: 3
          time: 1
          value: 0
          inSlope: 0
          outSlope: 0
          tangentMode: 0
          weightedMode: 0
          inWeight: 0
          outWeight: 0
        m_PreInfinity: 2
        m_PostInfinity: 2
        m_RotationOrder: 4
      m_heightMaskCurve:
        serializedVersion: 2
        m_Curve:
        - serializedVersion: 3
          time: 0
          value: 0
          inSlope: 0
          outSlope: 0
          tangentMode: 0
          weightedMode: 0
          inWeight: 0
          outWeight: 0
        - serializedVersion: 3
          time: 1
          value: 1
          inSlope: 0
          outSlope: 0
          tangentMode: 0
          weightedMode: 0
          inWeight: 0
          outWeight: 0
        m_PreInfinity: 2
        m_PostInfinity: 2
        m_RotationOrder: 4
      m_strengthTransformCurve:
        serializedVersion: 2
        m_Curve:
        - serializedVersion: 3
          time: 0
          value: 1
          inSlope: -1
          outSlope: -1
          tangentMode: 0
          weightedMode: 0
          inWeight: -0
          outWeight: -0
        - serializedVersion: 3
          time: 1
          value: 0
          inSlope: -1
          outSlope: -1
          tangentMode: 0
          weightedMode: 0
          inWeight: -0
          outWeight: -0
        m_PreInfinity: 2
        m_PostInfinity: 2
        m_RotationOrder: 4
      m_heightMaskType: 1
      m_heightMaskUnit: 0
      m_relativeHeightMin: -10
      m_relativeHeightMax: 10
      m_absoluteHeightMin: 2.5
      m_absoluteHeightMax: 22.5
      m_seaLevelRelativeHeightMin: -109876.55
      m_seaLevelRelativeHeightMax: 109876.55
      tree1active: 0
      tree2active: 0
      m_slopeMaskCurve:
        serializedVersion: 2
        m_Curve:
        - serializedVersion: 3
          time: 0
          value: 1
          inSlope: 0
          outSlope: 0
          tangentMode: 0
          weightedMode: 0
          inWeight: 0
          outWeight: 0
        - serializedVersion: 3
          time: 1
          value: 0
          inSlope: 0
          outSlope: 0
          tangentMode: 0
          weightedMode: 0
          inWeight: 0
          outWeight: 0
        m_PreInfinity: 2
        m_PostInfinity: 2
        m_RotationOrder: 4
      m_slopeMin: 0
      m_slopeMax: 0.083333336
      m_distanceMaskAxes: 0
      m_gaiaNoiseSettings:
        m_translation: {x: 0, y: 0, z: 0}
        m_rotation: {x: 0, y: 0, z: 0}
        m_scale: {x: 10, y: 1, z: 10}
        m_noiseTypeName: Perlin
        m_noiseTypeParams: 
        m_fractalTypeName: Fbm
        m_fractalTypeParams: 
        m_warpEnabled: 0
        m_warpIterations: 0
        m_warpStrength: 0
        m_warpOffset: {x: 0, y: 0, z: 0, w: 0}
      m_noiseSettings: {fileID: 0}
      m_noiseToolSettings:
        worldHeightRemap: {x: 0, y: 0}
        coordSpace: 0
        noiseAssetGUID: 
      m_ShowNoiseTransformSettings: 0
      m_ShowNoisePreviewTexture: 1
      m_noisePreviewTextureLocked: 0
      m_ShowNoiseTypeSettings: 0
      m_scaleNoiseToTerrainSize: 0
      m_collisionMaskExpanded: 1
      m_collisionMasks: []
      m_erosionMaskOutput: 0
      m_erosionSimScale: 9
      m_erosionHydroTimeDelta: 0.05
      m_erosionHydroIterations: 15
      m_erosionThermalTimeDelta: 0.01
      m_erosionThermalIterations: 80
      m_erosionThermalReposeAngle: 80
      m_erosionPrecipRate: 0.5
      m_erosionEvaporationRate: 0.5
      m_erosionFlowRate: 0.5
      m_erosionSedimentCapacity: 0.5
      m_erosionSedimentDepositRate: 0.8
      m_erosionSedimentDissolveRate: 0.5
      m_erosionRiverBankDepositRate: 7
      m_erosionRiverBankDissolveRate: 5
      m_erosionRiverBedDepositRate: 5
      m_erosionRiverBedDissolveRate: 5
      m_erosionShowAdvancedUI: 0
      m_erosionShowThermalUI: 0
      m_erosionShowWaterUI: 0
      m_erosionShowSedimentUI: 0
      m_erosionShowRiverBankUI: 0
      m_smoothVerticality: 0
      m_smoothBlurRadius: 1
      m_textureMaskSpawnRuleGUID: 
      m_concavity: 1
      m_concavityFeatureSize: 10
      m_foldedOut: 1
      m_selectedWorldBiomeMaskGUID: 
      m_growAndShrinkValue: 0
      m_globalSpawnerMaskStackRT: {fileID: 0}
    m_visualisationColor: {r: 0.9315582, g: 0.88487065, b: 0.5884144, a: 1}
    m_noiseMask: 0
    m_noiseMaskSeed: 0
    m_noiseMaskOctaves: 8
    m_noiseMaskPersistence: 0.25
    m_noiseMaskFrequency: 1
    m_noiseMaskLacunarity: 1.5
    m_noiseZoom: 50
    m_noiseStrength: 1
    m_noiseInvert: 0
    m_isActive: 1
    m_isFoldedOut: 0
    m_currInstanceCnt: 0
    m_activeInstanceCnt: 0
    m_inactiveInstanceCnt: 0
    m_resourceSettingsFoldedOut: 1
    m_isHelpActive: 0
    m_spawnedInstances: 0
    m_goSpawnTargetMode: 0
    m_goSpawnTarget: {fileID: 0}
    m_terrainGOSpawnTargetName: Gaia Game Object Spawns
    m_terrainDetailDensity: 15
    m_terrainDetailMinFitness: 0.5
    m_terrainDetailFitnessBeginFadeOut: 0.6
    m_createdBiomeController: {fileID: 0}
    m_visibleInSceneHierarchy: 1
    m_usesBoxStandIn: 0
    m_boundsCollisionCheck: 0
  - m_name: Stone Slope
    m_guid: 5faa5141-f5b6-467d-9868-302819c576c8
    m_useExtendedSpawn: 0
    m_minRequiredFitness: 0.25
    m_minInstanceRequiredFitness: 0
    m_failureRate: 0
    m_maxInstances: 40000000
    m_ignoreMaxInstances: 0
    m_minDirection: 0
    m_maxDirection: 359.9
    m_locationIncrementMin: 25
    m_locationIncrementMax: 45
    m_jitterPercent: 1
    m_boundsCheckQuality: 25
    m_resourceType: 0
    m_resourceIdx: 3
    m_imageMasks:
    - m_active: 1
      m_invert: 0
      m_hasErrors: 0
      m_influence: 0
      m_operation: 3
      m_blendMode: 0
      m_imageMaskLocation: 1
      m_strength: 1
      m_seaLevel: 25
      m_maxWorldHeight: 94.126434
      m_minWorldHeight: 0
      m_xOffSet: 0
      m_zOffSet: 0
      m_xOffSetScalar: 0
      m_zOffSetScalar: 0
      m_imageMaskTextureGUID: 
      m_imageMaskFilterMode: 0
      m_imageMaskColorSelectionColor: {r: 1, g: 1, b: 1, a: 1}
      m_imageMaskColorSelectionAccuracy: 0.5
      m_distanceMaskCurve:
        serializedVersion: 2
        m_Curve:
        - serializedVersion: 3
          time: 0
          value: 1
          inSlope: 0
          outSlope: 0
          tangentMode: 0
          weightedMode: 0
          inWeight: 0
          outWeight: 0
        - serializedVersion: 3
          time: 1
          value: 0
          inSlope: 0
          outSlope: 0
          tangentMode: 0
          weightedMode: 0
          inWeight: 0
          outWeight: 0
        m_PreInfinity: 2
        m_PostInfinity: 2
        m_RotationOrder: 4
      m_heightMaskCurve:
        serializedVersion: 2
        m_Curve:
        - serializedVersion: 3
          time: 0
          value: 0
          inSlope: 0
          outSlope: 0
          tangentMode: 0
          weightedMode: 0
          inWeight: 0
          outWeight: 0
        - serializedVersion: 3
          time: 1
          value: 1
          inSlope: 0
          outSlope: 0
          tangentMode: 0
          weightedMode: 0
          inWeight: 0
          outWeight: 0
        m_PreInfinity: 2
        m_PostInfinity: 2
        m_RotationOrder: 4
      m_strengthTransformCurve:
        serializedVersion: 2
        m_Curve:
        - serializedVersion: 3
          time: 0
          value: 1
          inSlope: -1
          outSlope: -1
          tangentMode: 0
          weightedMode: 0
          inWeight: -0
          outWeight: -0
        - serializedVersion: 3
          time: 1
          value: 0
          inSlope: -1
          outSlope: -1
          tangentMode: 0
          weightedMode: 0
          inWeight: -0
          outWeight: -0
        m_PreInfinity: 2
        m_PostInfinity: 2
        m_RotationOrder: 4
      m_heightMaskType: 1
      m_heightMaskUnit: 0
      m_relativeHeightMin: -10
      m_relativeHeightMax: 10
      m_absoluteHeightMin: 2.5
      m_absoluteHeightMax: 22.5
      m_seaLevelRelativeHeightMin: -109876.55
      m_seaLevelRelativeHeightMax: 109876.55
      tree1active: 0
      tree2active: 0
      m_slopeMaskCurve:
        serializedVersion: 2
        m_Curve:
        - serializedVersion: 3
          time: 0
          value: 1
          inSlope: 0
          outSlope: 0
          tangentMode: 0
          weightedMode: 0
          inWeight: 0
          outWeight: 0
        - serializedVersion: 3
          time: 1
          value: 0
          inSlope: 0
          outSlope: 0
          tangentMode: 0
          weightedMode: 0
          inWeight: 0
          outWeight: 0
        m_PreInfinity: 2
        m_PostInfinity: 2
        m_RotationOrder: 4
      m_slopeMin: 0
      m_slopeMax: 0.25
      m_distanceMaskAxes: 0
      m_gaiaNoiseSettings:
        m_translation: {x: 0, y: 0, z: 0}
        m_rotation: {x: 0, y: 0, z: 0}
        m_scale: {x: 10, y: 1, z: 10}
        m_noiseTypeName: Perlin
        m_noiseTypeParams: 
        m_fractalTypeName: Fbm
        m_fractalTypeParams: 
        m_warpEnabled: 0
        m_warpIterations: 0
        m_warpStrength: 0
        m_warpOffset: {x: 0, y: 0, z: 0, w: 0}
      m_noiseSettings: {fileID: 0}
      m_noiseToolSettings:
        worldHeightRemap: {x: 0, y: 0}
        coordSpace: 0
        noiseAssetGUID: 
      m_ShowNoiseTransformSettings: 0
      m_ShowNoisePreviewTexture: 1
      m_noisePreviewTextureLocked: 0
      m_ShowNoiseTypeSettings: 0
      m_scaleNoiseToTerrainSize: 0
      m_collisionMaskExpanded: 1
      m_collisionMasks: []
      m_erosionMaskOutput: 0
      m_erosionSimScale: 9
      m_erosionHydroTimeDelta: 0.05
      m_erosionHydroIterations: 15
      m_erosionThermalTimeDelta: 0.01
      m_erosionThermalIterations: 80
      m_erosionThermalReposeAngle: 80
      m_erosionPrecipRate: 0.5
      m_erosionEvaporationRate: 0.5
      m_erosionFlowRate: 0.5
      m_erosionSedimentCapacity: 0.5
      m_erosionSedimentDepositRate: 0.8
      m_erosionSedimentDissolveRate: 0.5
      m_erosionRiverBankDepositRate: 7
      m_erosionRiverBankDissolveRate: 5
      m_erosionRiverBedDepositRate: 5
      m_erosionRiverBedDissolveRate: 5
      m_erosionShowAdvancedUI: 0
      m_erosionShowThermalUI: 0
      m_erosionShowWaterUI: 0
      m_erosionShowSedimentUI: 0
      m_erosionShowRiverBankUI: 0
      m_smoothVerticality: 0
      m_smoothBlurRadius: 1
      m_textureMaskSpawnRuleGUID: 
      m_concavity: 1
      m_concavityFeatureSize: 10
      m_foldedOut: 1
      m_selectedWorldBiomeMaskGUID: 
      m_growAndShrinkValue: 0
      m_globalSpawnerMaskStackRT: {fileID: 0}
    m_visualisationColor: {r: 0.7433828, g: 0.5499383, b: 0.402634, a: 1}
    m_noiseMask: 0
    m_noiseMaskSeed: 0
    m_noiseMaskOctaves: 8
    m_noiseMaskPersistence: 0.25
    m_noiseMaskFrequency: 1
    m_noiseMaskLacunarity: 1.5
    m_noiseZoom: 50
    m_noiseStrength: 1
    m_noiseInvert: 0
    m_isActive: 1
    m_isFoldedOut: 0
    m_currInstanceCnt: 0
    m_activeInstanceCnt: 0
    m_inactiveInstanceCnt: 0
    m_resourceSettingsFoldedOut: 1
    m_isHelpActive: 0
    m_spawnedInstances: 0
    m_goSpawnTargetMode: 0
    m_goSpawnTarget: {fileID: 0}
    m_terrainGOSpawnTargetName: Gaia Game Object Spawns
    m_terrainDetailDensity: 15
    m_terrainDetailMinFitness: 0.5
    m_terrainDetailFitnessBeginFadeOut: 0.6
    m_createdBiomeController: {fileID: 0}
    m_visibleInSceneHierarchy: 1
    m_usesBoxStandIn: 0
    m_boundsCollisionCheck: 0
  m_showGizmos: 1
  m_showDebug: 0
  m_showTerrainHelper: 1
  m_spawnMode: 0
  imageMasks: []
  m_clearSpawnsToggleTrees: 0
  m_clearSpawnsToggleDetails: 0
  m_clearSpawnsToggleGOs: 0
  m_clearSpawnsToggleSpawnExtensions: 0
  m_clearSpawnsToggleProbes: 0
  m_clearSpawnsFor: 1
  m_clearSpawnsFrom: 0
  m_lastGUIDSaved: 4dda95930422a9f469c0c99505aff15e
--- !u!114 &11400000
MonoBehaviour:
  m_ObjectHideFlags: 0
  m_CorrespondingSourceObject: {fileID: 0}
  m_PrefabInstance: {fileID: 0}
  m_PrefabAsset: {fileID: 0}
  m_GameObject: {fileID: 0}
  m_Enabled: 1
  m_EditorHideFlags: 0
  m_Script: {fileID: 11500000, guid: 5415a5032c6a32e4ca53206bb5d95f22, type: 3}
  m_Name: 20210315-114844 Spawning - Gaia Pro Sample-Texture(Clone)
  m_EditorClassIdentifier: 
  m_spawnArea:
    m_Center:
      x: 0
      y: 47.23724365234375
      z: 0
    m_Extents:
      x: 512
      y: 512
      z: 512
  m_biomeControllerSettings: {fileID: 0}
  m_isWorldMapSpawner: 0
  m_spawnerSettingsList:
  - {fileID: -7693707334362681514}
