%YAML 1.1
%TAG !u! tag:unity3d.com,2011:
--- !u!114 &11400000
MonoBehaviour:
  m_ObjectHideFlags: 0
  m_CorrespondingSourceObject: {fileID: 0}
  m_PrefabInstance: {fileID: 0}
  m_PrefabAsset: {fileID: 0}
  m_GameObject: {fileID: 0}
  m_Enabled: 1
  m_EditorHideFlags: 0
  m_Script: {fileID: 11500000, guid: de5d6edb976c8774c838e1ce58e3d56e, type: 3}
  m_Name: 42C69A51-1D93-4EDC-B83E-A0193F6893E9
  m_EditorClassIdentifier: 
  objectName: Cave_Forest_Eerie
  id: 2576100661
  guid: 42C69A51-1D93-4EDC-B83E-A0193F6893E9
  WwiseStateGroupReference: {fileID: 11400000, guid: 584155827b8bd204c9e4b07bfa142234, type: 2}
