%YAML 1.1
%TAG !u! tag:unity3d.com,2011:
--- !u!21 &2100000
Material:
  serializedVersion: 6
  m_ObjectHideFlags: 0
  m_CorrespondingSourceObject: {fileID: 0}
  m_PrefabInstance: {fileID: 0}
  m_PrefabAsset: {fileID: 0}
  m_Name: SuperFuel_Small_Lakes
  m_Shader: {fileID: -6465566751694194690, guid: 958d686aa869fa848b8c4d8436642f37, type: 3}
  m_ShaderKeywords: _DISABLE_SSR_TRANSPARENT _ENABLE_FOG_ON_TRANSPARENT _SURFACE_TYPE_TRANSPARENT
  m_LightmapFlags: 4
  m_EnableInstancingVariants: 0
  m_DoubleSidedGI: 0
  m_CustomRenderQueue: 3000
  stringTagMap:
    MotionVector: User
    RenderType: Transparent
  disabledShaderPasses:
  - MOTIONVECTORS
  - TransparentDepthPrepass
  - TransparentDepthPostpass
  - TransparentBackface
  - RayTracingPrepass
  m_SavedProperties:
    serializedVersion: 3
    m_TexEnvs:
    - Texture2D_3d81304f34224a72a5cf5755a9fae543:
        m_Texture: {fileID: 2800000, guid: c66b71987f93ad344a72536c2e1bc461, type: 3}
        m_Scale: {x: 1, y: 1}
        m_Offset: {x: 0, y: 0}
    - Texture2D_3de3e31c2d1e461cbfe5604b6195c478:
        m_Texture: {fileID: 2800000, guid: bf4534540f7de504ab36a4905aaef818, type: 3}
        m_Scale: {x: 1, y: 1}
        m_Offset: {x: 0, y: 0}
    - Texture2D_76aede1f6e8a49f08dffc916cfa23534:
        m_Texture: {fileID: 2800000, guid: c66b71987f93ad344a72536c2e1bc461, type: 3}
        m_Scale: {x: 1, y: 1}
        m_Offset: {x: 0, y: 0}
    - Texture2D_8f217c6f3a414b249f737a4f39e48701:
        m_Texture: {fileID: 2800000, guid: ff18a03108906b043b4039122ac0447a, type: 3}
        m_Scale: {x: 1, y: 1}
        m_Offset: {x: 0, y: 0}
    - _SampleCubemap_083f4e74f04a4ff6a141c419e8cc96c0_Cube_1:
        m_Texture: {fileID: 8900000, guid: 54a3a0570aebe8949bec4966f1376581, type: 3}
        m_Scale: {x: 1, y: 1}
        m_Offset: {x: 0, y: 0}
    - _SampleTexture2D_89ebb67b0c2e4427bd0260f271475df5_Texture_1:
        m_Texture: {fileID: 0}
        m_Scale: {x: 1, y: 1}
        m_Offset: {x: 0, y: 0}
    - unity_Lightmaps:
        m_Texture: {fileID: 0}
        m_Scale: {x: 1, y: 1}
        m_Offset: {x: 0, y: 0}
    - unity_LightmapsInd:
        m_Texture: {fileID: 0}
        m_Scale: {x: 1, y: 1}
        m_Offset: {x: 0, y: 0}
    - unity_ShadowMasks:
        m_Texture: {fileID: 0}
        m_Scale: {x: 1, y: 1}
        m_Offset: {x: 0, y: 0}
    m_Floats:
    - Vector1_095a82149877470a9b9c869ff62cb226: 0
    - Vector1_3c4dd5ee95b44d308fd7c60768c9f5f5: 0.01
    - Vector1_4cb7f0293571477da49af386f0433615: 1
    - Vector1_5d3e9cc34d654cada6e1d1f78d2f30f8: 4
    - Vector1_6389f7603e2e40f4b8459b62604429b1: 20
    - Vector1_6c30b53bd54c46f79c504d2d001a2a85: 1
    - Vector1_6d854e38b8bc482583bfdd601e5969dd: 0
    - Vector1_701a3a7d125a418d8fa5aecfae7ae318: 0.08
    - Vector1_89412f317c8d47988a69987975fc0cf7: 1.69
    - Vector1_89b8c2afe9f1487c9580d3432793d316: 0.08
    - Vector1_93d50765e2de44699ec4e8c4ec7f3969: 0.45
    - Vector1_9d68059d93374b0db0ad78090f059d92: 0.4
    - Vector1_cca7f450ccb741c6afb2b284c0c1850f: 0.05
    - Vector1_f71eb96589624a6b87021fed0afbbd2c: 1
    - Vector1_fab9dd92d90c4a6d9b9cab2154a1bb3a: 0.59
    - _AddPrecomputedVelocity: 0
    - _AlphaCutoffEnable: 0
    - _AlphaDstBlend: 10
    - _AlphaSrcBlend: 1
    - _AlphaToMask: 0
    - _AlphaToMaskInspectorValue: 0
    - _BlendMode: 0
    - _CullMode: 2
    - _CullModeForward: 2
    - _DepthOffsetEnable: 0
    - _DoubleSidedEnable: 0
    - _DoubleSidedNormalMode: 2
    - _DstBlend: 10
    - _EnableBlendModePreserveSpecularLighting: 1
    - _EnableFogOnTransparent: 1
    - _OpaqueCullMode: 2
    - _RayTracing: 0
    - _ReceivesSSR: 1
    - _ReceivesSSRTransparent: 0
    - _RefractionModel: 0
    - _RenderQueueType: 4
    - _RequireSplitLighting: 0
    - _SrcBlend: 1
    - _StencilRef: 0
    - _StencilRefDepth: 0
    - _StencilRefDistortionVec: 4
    - _StencilRefGBuffer: 2
    - _StencilRefMV: 32
    - _StencilWriteMask: 6
    - _StencilWriteMaskDepth: 8
    - _StencilWriteMaskDistortionVec: 4
    - _StencilWriteMaskGBuffer: 14
    - _StencilWriteMaskMV: 40
    - _SupportDecals: 1
    - _SurfaceType: 1
    - _TransparentBackfaceEnable: 0
    - _TransparentCullMode: 2
    - _TransparentDepthPostpassEnable: 0
    - _TransparentDepthPrepassEnable: 0
    - _TransparentSortPriority: 0
    - _TransparentWritingMotionVec: 0
    - _TransparentZWrite: 0
    - _UseShadowThreshold: 0
    - _ZTestDepthEqualForOpaque: 4
    - _ZTestGBuffer: 4
    - _ZTestTransparent: 4
    - _ZWrite: 0
    m_Colors:
    - Color_605ebb292ce64da88af9684194b6a3e7: {r: 0, g: 21.303246, b: 36.329643, a: 0}
    - Color_6644358f01944552bcb7c75a794d1b83: {r: 0, g: 119249.82, b: 196351, a: 0}
    - Vector2_3ce6b13797434d54b90b5ce8b93696c7: {r: 0.2, g: 0.2, b: 0, a: 0}
    - Vector2_5410dbc505d94d24830994db001c3b44: {r: 0.002, g: 0, b: 0, a: 0}
    - Vector2_614b3a8bc50d40d28ee30823ba2b1ebc: {r: 0, g: 0, b: 0, a: 0}
    - Vector2_67662259539349c998d1ef43baa8f1c2: {r: 0.1, g: 0.1, b: 0, a: 0}
    - Vector2_6d5165094f3c443d81b4724a616a17ee: {r: 0.003, g: 0, b: 0, a: 0}
    - Vector2_843026bed7404cf4ba064edc826d0c67: {r: 0, g: 0, b: 0, a: 0}
    - Vector2_897a009d228f4646bb16c532da602e6a: {r: 0.1, g: 0.1, b: 0, a: 0}
    - Vector2_915ffc67b4bc41a1ba6bb8a123ec421b: {r: 0.01, g: 0, b: 0, a: 0}
    - Vector2_9e070dd778474dae8412664bfc6ef0e7: {r: 0.001, g: 0.001, b: 0, a: 0}
    - Vector2_a56a8e511cb948638903019687391c3e: {r: 0.1, g: 0.1, b: 0, a: 0}
    - Vector2_e130631a1e6245428880e3adac41e387: {r: -0.002, g: 0.002, b: 0, a: 0}
    - Vector2_f553e1785c8e484ab100b34a15d20469: {r: 0.1, g: 0.1, b: 0, a: 0}
    - _DoubleSidedConstants: {r: 1, g: 1, b: 1, a: 0}
    - _EmissionColor: {r: 1, g: 1, b: 1, a: 1}
  m_BuildTextureStacks: []
--- !u!114 &131926431040475239
MonoBehaviour:
  m_ObjectHideFlags: 11
  m_CorrespondingSourceObject: {fileID: 0}
  m_PrefabInstance: {fileID: 0}
  m_PrefabAsset: {fileID: 0}
  m_GameObject: {fileID: 0}
  m_Enabled: 1
  m_EditorHideFlags: 0
  m_Script: {fileID: 11500000, guid: da692e001514ec24dbc4cca1949ff7e8, type: 3}
  m_Name: 
  m_EditorClassIdentifier: 
  version: 11
