%YAML 1.1
%TAG !u! tag:unity3d.com,2011:
--- !u!114 &11400000
MonoBehaviour:
  m_ObjectHideFlags: 0
  m_CorrespondingSourceObject: {fileID: 0}
  m_PrefabInstance: {fileID: 0}
  m_PrefabAsset: {fileID: 0}
  m_GameObject: {fileID: 0}
  m_Enabled: 1
  m_EditorHideFlags: 0
  m_Script: {fileID: 11500000, guid: 1e5130edad9f318468070c1e8d75b10c, type: 3}
  m_Name: Mutation_6_OnEdge
  m_EditorClassIdentifier: 
  canUse: 1
  desactivateDuration: 0.5
  desactivateGrabDuration: 0
