%YAML 1.1
%TAG !u! tag:unity3d.com,2011:
--- !u!114 &11400000
MonoBehaviour:
  m_ObjectHideFlags: 0
  m_CorrespondingSourceObject: {fileID: 0}
  m_PrefabInstance: {fileID: 0}
  m_PrefabAsset: {fileID: 0}
  m_GameObject: {fileID: 0}
  m_Enabled: 1
  m_EditorHideFlags: 0
  m_Script: {fileID: 11500000, guid: e113286dbecd5b34d8dbba898ffc6a41, type: 3}
  m_Name: Mutation_6_ClimbingWall
  m_EditorClassIdentifier: 
  canUse: 1
  desactivateDuration: 0.5
  m_maxClimbSpeed: 5
  m_acceleration: 5
  m_turnOverAcc: 10
  m_climbDrag: 0.001
  m_decceleration: 5
  ledgeDetection: {x: 0, y: 0}
