%YAML 1.1
%TAG !u! tag:unity3d.com,2011:
--- !u!114 &11400000
MonoBehaviour:
  m_ObjectHideFlags: 0
  m_CorrespondingSourceObject: {fileID: 0}
  m_PrefabInstance: {fileID: 0}
  m_PrefabAsset: {fileID: 0}
  m_GameObject: {fileID: 0}
  m_Enabled: 1
  m_EditorHideFlags: 0
  m_Script: {fileID: 11500000, guid: f5189565fc2f4464286fb79b57bc59f9, type: 3}
  m_Name: C0CA297A-F6E9-40FC-A405-A1D3D522D111
  m_EditorClassIdentifier: 
  objectName: Play_2nd_Crise
  id: 4207533607
  guid: C0CA297A-F6E9-40FC-A405-A1D3D522D111
