%YAML 1.1
%TAG !u! tag:unity3d.com,2011:
--- !u!114 &11400000
MonoBehaviour:
  m_ObjectHideFlags: 0
  m_CorrespondingSourceObject: {fileID: 0}
  m_PrefabInstance: {fileID: 0}
  m_PrefabAsset: {fileID: 0}
  m_GameObject: {fileID: 0}
  m_Enabled: 1
  m_EditorHideFlags: 0
  m_Script: {fileID: 11500000, guid: 81ea31b69da5ace4aa014200a5cd5fad, type: 3}
  m_Name: 6C3F0DA4-24C2-4157-BFBD-659D63E13B51
  m_EditorClassIdentifier: 
  objectName: Footsteps_Water
  id: 3824801682
  guid: 6C3F0DA4-24C2-4157-BFBD-659D63E13B51
  WwiseSwitchGroupReference: {fileID: 11400000, guid: 00f4226b95a051241a0ad005d39e5981, type: 2}
