%YAML 1.1
%TAG !u! tag:unity3d.com,2011:
--- !u!21 &2100000
Material:
  serializedVersion: 6
  m_ObjectHideFlags: 0
  m_CorrespondingSourceObject: {fileID: 0}
  m_PrefabInstance: {fileID: 0}
  m_PrefabAsset: {fileID: 0}
  m_Name: Anemone09
  m_Shader: {fileID: 4800000, guid: 326392679aa90c44da1cfc13243882db, type: 3}
  m_ShaderKeywords: _AOENABLE_ON _COLORMASK_ON _CUSTOMGLOSS_ON _USEALPHA_ON
  m_LightmapFlags: 4
  m_EnableInstancingVariants: 0
  m_DoubleSidedGI: 0
  m_CustomRenderQueue: -1
  stringTagMap: {}
  disabledShaderPasses: []
  m_SavedProperties:
    serializedVersion: 3
    m_TexEnvs:
    - _AmbientOclussion:
        m_Texture: {fileID: 0}
        m_Scale: {x: 1, y: 1}
        m_Offset: {x: 0, y: 0}
    - _Base:
        m_Texture: {fileID: 0}
        m_Scale: {x: 1, y: 1}
        m_Offset: {x: 0, y: 0}
    - _BumpMap:
        m_Texture: {fileID: 2800000, guid: fdadc5ebac3e9f442bc641a8177435fa, type: 3}
        m_Scale: {x: 1, y: 1}
        m_Offset: {x: 0, y: 0}
    - _DetailAlbedoMap:
        m_Texture: {fileID: 0}
        m_Scale: {x: 1, y: 1}
        m_Offset: {x: 0, y: 0}
    - _DetailMask:
        m_Texture: {fileID: 0}
        m_Scale: {x: 1, y: 1}
        m_Offset: {x: 0, y: 0}
    - _DetailNormalMap:
        m_Texture: {fileID: 0}
        m_Scale: {x: 1, y: 1}
        m_Offset: {x: 0, y: 0}
    - _Displace:
        m_Texture: {fileID: 0}
        m_Scale: {x: 1, y: 1}
        m_Offset: {x: 0, y: 0}
    - _EmissionMap:
        m_Texture: {fileID: 2800000, guid: bc111d0aad6a57a44ace782584452416, type: 3}
        m_Scale: {x: 0.61, y: 0.34}
        m_Offset: {x: 0, y: 0}
    - _Gloss:
        m_Texture: {fileID: 0}
        m_Scale: {x: 1, y: 1}
        m_Offset: {x: 0, y: 0}
    - _MainTex:
        m_Texture: {fileID: 2800000, guid: 5f9fbeaf38989124395fdca6289139a4, type: 3}
        m_Scale: {x: 1, y: 1}
        m_Offset: {x: 0, y: 0}
    - _MaskMap:
        m_Texture: {fileID: 0}
        m_Scale: {x: 1, y: 1}
        m_Offset: {x: 0, y: 0}
    - _MetallicGlossMap:
        m_Texture: {fileID: 2800000, guid: 97a9c55b6fed5cc479153e04451642ca, type: 3}
        m_Scale: {x: 1, y: 1}
        m_Offset: {x: 0, y: 0}
    - _Normal:
        m_Texture: {fileID: 0}
        m_Scale: {x: 1, y: 1}
        m_Offset: {x: 0, y: 0}
    - _OcclusionMap:
        m_Texture: {fileID: 2800000, guid: 97a9c55b6fed5cc479153e04451642ca, type: 3}
        m_Scale: {x: 1, y: 1}
        m_Offset: {x: 0, y: 0}
    - _OpacityMap:
        m_Texture: {fileID: 0}
        m_Scale: {x: 1, y: 1}
        m_Offset: {x: 0, y: 0}
    - _ParallaxMap:
        m_Texture: {fileID: 0}
        m_Scale: {x: 1, y: 1}
        m_Offset: {x: 0, y: 0}
    - _ReflectionMap:
        m_Texture: {fileID: 0}
        m_Scale: {x: 1, y: 1}
        m_Offset: {x: 0, y: 0}
    - _ReflectionMask:
        m_Texture: {fileID: 0}
        m_Scale: {x: 1, y: 1}
        m_Offset: {x: 0, y: 0}
    - _RimMask:
        m_Texture: {fileID: 0}
        m_Scale: {x: 1, y: 1}
        m_Offset: {x: 0, y: 0}
    - _SmoothnessMap:
        m_Texture: {fileID: 2800000, guid: 5f9fbeaf38989124395fdca6289139a4, type: 3}
        m_Scale: {x: 1, y: 1}
        m_Offset: {x: 0, y: 0}
    - _Specular:
        m_Texture: {fileID: 0}
        m_Scale: {x: 1, y: 1}
        m_Offset: {x: 0, y: 0}
    - _TransMask:
        m_Texture: {fileID: 0}
        m_Scale: {x: 1, y: 1}
        m_Offset: {x: 0, y: 0}
    - _WorldNoise:
        m_Texture: {fileID: 2800000, guid: 8a33aa5179afeb941a473ef6b4c0a93c, type: 3}
        m_Scale: {x: 1, y: 1}
        m_Offset: {x: 0, y: 0}
    m_Floats:
    - _AOBurn: 0
    - _AODetail: 0
    - _AOEnable: 1
    - _AOLevel: 0.5
    - _AmbientalPower: 1
    - _AnimIntensity: 1
    - _BumpScale: 1
    - _ColorMask: 1
    - _CustomGloss: 1
    - _Cutoff: 29.11
    - _DetailNormalMapScale: 1
    - _DispBurn: 1
    - _DispPower: 1
    - _DstBlend: 0
    - _EmissionLM: 0.08
    - _Fresnel: -0.46
    - _GlossMapScale: 1
    - _Glossiness: 0.015
    - _GlossyReflections: 1
    - _LenghtAnim: 0.05
    - _LengthOffset: 0.08
    - _MaskHeight: 0
    - _MetalAlphaGloss: 0
    - _Metallic: 0.704
    - _Mode: 0
    - _MovementAOMask: 3.48
    - _NormalSmooth: 0
    - _OcclusionStrenght: 5.03
    - _OcclusionStrength: 1
    - _Parallax: 0.02
    - _ReflectionEmission: 0
    - _ReflectionPower: 1
    - _RimFresnel: 3
    - _RimPower: 1.7
    - _Shinniness: 0.5
    - _SmoothnessTextureChannel: 0
    - _SpecularHighlights: 1
    - _SpecularLevel: 1
    - _SrcBlend: 1
    - _Tesellation: 1
    - _TransPower: 1
    - _Translucency: 0
    - _UVSec: 0
    - _UpDownVelocity: 20
    - _UseAlpha: 1
    - _WeightAnim: 0.05
    - _WeightOffset: 0.08
    - _WorldNoiseColor: 0.5
    - _WorldNoiseVelocity: 1
    - _ZWrite: 1
    m_Colors:
    - _Color: {r: 0.13008454, g: 0, b: 0.16037738, a: 1}
    - _ColorFade: {r: 0.5754717, g: 0.42734483, b: 0.0027144956, a: 1}
    - _ColorRoot: {r: 0.2279307, g: 0.2426471, b: 0.1605753, a: 1}
    - _ColorTime: {r: 0.2818876, g: 0.3970588, b: 0.2452422, a: 1}
    - _ColorTint: {r: 0.02205884, g: 1, b: 0.5808825, a: 1}
    - _EmissionColor: {r: 0.9716981, g: 0.4322912, b: 0, a: 1}
    - _ReflectionTint: {r: 1, g: 1, b: 1, a: 1}
    - _RimColor: {r: 0.6037736, g: 0.31043077, b: 0.31043077, a: 1}
    - _SpecColor: {r: 0.5, g: 0.5, b: 0.5, a: 1}
    - _TransColor: {r: 0.5, g: 0.5, b: 0.5, a: 1}
